-target:library
-out:"Library/Bee/artifacts/1300b0aE.dag/Unity.MemoryProfiler.Editor.dll"
-refout:"Library/Bee/artifacts/1300b0aE.dag/Unity.MemoryProfiler.Editor.ref.dll"
-define:UNITY_2021_3_19
-define:UNITY_2021_3
-define:UNITY_2021
-define:UNITY_5_3_OR_NEWER
-define:UNITY_5_4_OR_NEWER
-define:UNITY_5_5_OR_NEWER
-define:UNITY_5_6_OR_NEWER
-define:UNITY_2017_1_OR_NEWER
-define:UNITY_2017_2_OR_NEWER
-define:UNITY_2017_3_OR_NEWER
-define:UNITY_2017_4_OR_NEWER
-define:UNITY_2018_1_OR_NEWER
-define:UNITY_2018_2_OR_NEWER
-define:UNITY_2018_3_OR_NEWER
-define:UNITY_2018_4_OR_NEWER
-define:UNITY_2019_1_OR_NEWER
-define:UNITY_2019_2_OR_NEWER
-define:UNITY_2019_3_OR_NEWER
-define:UNITY_2019_4_OR_NEWER
-define:UNITY_2020_1_OR_NEWER
-define:UNITY_2020_2_OR_NEWER
-define:UNITY_2020_3_OR_NEWER
-define:UNITY_2021_1_OR_NEWER
-define:UNITY_2021_2_OR_NEWER
-define:UNITY_2021_3_OR_NEWER
-define:UNITY_INCLUDE_TESTS
-define:ENABLE_AR
-define:ENABLE_AUDIO
-define:ENABLE_CACHING
-define:ENABLE_CLOTH
-define:ENABLE_EVENT_QUEUE
-define:ENABLE_MICROPHONE
-define:ENABLE_MULTIPLE_DISPLAYS
-define:ENABLE_PHYSICS
-define:ENABLE_TEXTURE_STREAMING
-define:ENABLE_UNET
-define:ENABLE_LZMA
-define:ENABLE_UNITYEVENTS
-define:ENABLE_VR
-define:ENABLE_WEBCAM
-define:ENABLE_UNITYWEBREQUEST
-define:ENABLE_WWW
-define:ENABLE_CLOUD_SERVICES
-define:ENABLE_CLOUD_SERVICES_COLLAB
-define:ENABLE_CLOUD_SERVICES_COLLAB_SOFTLOCKS
-define:ENABLE_CLOUD_SERVICES_ADS
-define:ENABLE_CLOUD_SERVICES_USE_WEBREQUEST
-define:ENABLE_CLOUD_SERVICES_CRASH_REPORTING
-define:ENABLE_CLOUD_SERVICES_NATIVE_CRASH_REPORTING
-define:ENABLE_CLOUD_SERVICES_PURCHASING
-define:ENABLE_CLOUD_SERVICES_ANALYTICS
-define:ENABLE_CLOUD_SERVICES_UNET
-define:ENABLE_CLOUD_SERVICES_BUILD
-define:ENABLE_CLOUD_LICENSE
-define:ENABLE_EDITOR_HUB_LICENSE
-define:ENABLE_WEBSOCKET_CLIENT
-define:ENABLE_DIRECTOR_AUDIO
-define:ENABLE_DIRECTOR_TEXTURE
-define:ENABLE_MANAGED_JOBS
-define:ENABLE_MANAGED_TRANSFORM_JOBS
-define:ENABLE_MANAGED_ANIMATION_JOBS
-define:ENABLE_MANAGED_AUDIO_JOBS
-define:ENABLE_RUNTIME_PERMISSIONS
-define:ENABLE_ENGINE_CODE_STRIPPING
-define:ENABLE_ONSCREEN_KEYBOARD
-define:ENABLE_MANAGED_UNITYTLS
-define:INCLUDE_DYNAMIC_GI
-define:ENABLE_SCRIPTING_GC_WBARRIERS
-define:PLATFORM_SUPPORTS_MONO
-define:ENABLE_VIDEO
-define:ENABLE_ACCELERATOR_CLIENT_DEBUGGING
-define:PLATFORM_ANDROID
-define:TEXTCORE_1_0_OR_NEWER
-define:UNITY_ANDROID
-define:UNITY_ANDROID_API
-define:ENABLE_EGL
-define:ENABLE_NETWORK
-define:ENABLE_RUNTIME_GI
-define:ENABLE_CRUNCH_TEXTURE_COMPRESSION
-define:UNITY_CAN_SHOW_SPLASH_SCREEN
-define:UNITY_HAS_GOOGLEVR
-define:UNITY_HAS_TANGO
-define:ENABLE_SPATIALTRACKING
-define:ENABLE_ETC_COMPRESSION
-define:PLATFORM_EXTENDS_VULKAN_DEVICE
-define:PLATFORM_HAS_MULTIPLE_SWAPCHAINS
-define:UNITY_ANDROID_SUPPORTS_SHADOWFILES
-define:PLATFORM_UPDATES_TIME_OUTSIDE_OF_PLAYER_LOOP
-define:ENABLE_UNITYADS_RUNTIME
-define:UNITY_UNITYADS_API
-define:ENABLE_MONO
-define:NET_4_6
-define:NET_UNITY_4_8
-define:ENABLE_PROFILER
-define:DEBUG
-define:TRACE
-define:UNITY_ASSERTIONS
-define:UNITY_EDITOR
-define:UNITY_EDITOR_64
-define:UNITY_EDITOR_WIN
-define:ENABLE_UNITY_COLLECTIONS_CHECKS
-define:ENABLE_BURST_AOT
-define:UNITY_TEAM_LICENSE
-define:ENABLE_CUSTOM_RENDER_TEXTURE
-define:ENABLE_DIRECTOR
-define:ENABLE_LOCALIZATION
-define:ENABLE_SPRITES
-define:ENABLE_TERRAIN
-define:ENABLE_TILEMAP
-define:ENABLE_TIMELINE
-define:ENABLE_LEGACY_INPUT_MANAGER
-define:TEXTCORE_FONT_ENGINE_1_5_OR_NEWER
-define:CSHARP_7_OR_LATER
-define:CSHARP_7_3_OR_NEWER
-r:"Assets/ExternalDependencyManager/Editor/1.2.176/Google.IOSResolver.dll"
-r:"Assets/ExternalDependencyManager/Editor/1.2.176/Google.JarResolver.dll"
-r:"Assets/ExternalDependencyManager/Editor/1.2.176/Google.PackageManagerResolver.dll"
-r:"Assets/ExternalDependencyManager/Editor/1.2.176/Google.VersionHandlerImpl.dll"
-r:"Assets/ExternalDependencyManager/Editor/Google.VersionHandler.dll"
-r:"Assets/Firebase/Editor/Firebase.Crashlytics.Editor.dll"
-r:"Assets/Firebase/Editor/Firebase.Editor.dll"
-r:"Assets/Firebase/Plugins/Firebase.Analytics.dll"
-r:"Assets/Firebase/Plugins/Firebase.App.dll"
-r:"Assets/Firebase/Plugins/Firebase.Crashlytics.dll"
-r:"Assets/Firebase/Plugins/Firebase.Platform.dll"
-r:"Assets/Firebase/Plugins/Firebase.RemoteConfig.dll"
-r:"Assets/Firebase/Plugins/Firebase.TaskExtension.dll"
-r:"Assets/Firebase/Plugins/Google.MiniJson.dll"
-r:"Assets/GoogleMobileAds/GoogleMobileAds.Common.dll"
-r:"Assets/GoogleMobileAds/GoogleMobileAds.Core.dll"
-r:"Assets/GoogleMobileAds/GoogleMobileAds.dll"
-r:"Assets/GoogleMobileAds/GoogleMobileAds.Ump.dll"
-r:"Assets/GoogleMobileAds/GoogleMobileAds.Ump.Unity.dll"
-r:"Assets/GoogleMobileAds/GoogleMobileAds.Unity.dll"
-r:"Assets/Plugins/Demigiant/DOTween/DOTween.dll"
-r:"Assets/Plugins/Demigiant/DOTween/Editor/DOTweenEditor.dll"
-r:"E:/Work/Unity/editors/2021.3.19f1/Editor/Data/Managed/UnityEditor.Graphs.dll"
-r:"E:/Work/Unity/editors/2021.3.19f1/Editor/Data/Managed/UnityEngine/UnityEditor.CoreModule.dll"
-r:"E:/Work/Unity/editors/2021.3.19f1/Editor/Data/Managed/UnityEngine/UnityEditor.DeviceSimulatorModule.dll"
-r:"E:/Work/Unity/editors/2021.3.19f1/Editor/Data/Managed/UnityEngine/UnityEditor.DiagnosticsModule.dll"
-r:"E:/Work/Unity/editors/2021.3.19f1/Editor/Data/Managed/UnityEngine/UnityEditor.dll"
-r:"E:/Work/Unity/editors/2021.3.19f1/Editor/Data/Managed/UnityEngine/UnityEditor.GraphViewModule.dll"
-r:"E:/Work/Unity/editors/2021.3.19f1/Editor/Data/Managed/UnityEngine/UnityEditor.PackageManagerUIModule.dll"
-r:"E:/Work/Unity/editors/2021.3.19f1/Editor/Data/Managed/UnityEngine/UnityEditor.QuickSearchModule.dll"
-r:"E:/Work/Unity/editors/2021.3.19f1/Editor/Data/Managed/UnityEngine/UnityEditor.SceneTemplateModule.dll"
-r:"E:/Work/Unity/editors/2021.3.19f1/Editor/Data/Managed/UnityEngine/UnityEditor.TextCoreFontEngineModule.dll"
-r:"E:/Work/Unity/editors/2021.3.19f1/Editor/Data/Managed/UnityEngine/UnityEditor.TextCoreTextEngineModule.dll"
-r:"E:/Work/Unity/editors/2021.3.19f1/Editor/Data/Managed/UnityEngine/UnityEditor.UIBuilderModule.dll"
-r:"E:/Work/Unity/editors/2021.3.19f1/Editor/Data/Managed/UnityEngine/UnityEditor.UIElementsModule.dll"
-r:"E:/Work/Unity/editors/2021.3.19f1/Editor/Data/Managed/UnityEngine/UnityEditor.UIElementsSamplesModule.dll"
-r:"E:/Work/Unity/editors/2021.3.19f1/Editor/Data/Managed/UnityEngine/UnityEditor.UIServiceModule.dll"
-r:"E:/Work/Unity/editors/2021.3.19f1/Editor/Data/Managed/UnityEngine/UnityEditor.UnityConnectModule.dll"
-r:"E:/Work/Unity/editors/2021.3.19f1/Editor/Data/Managed/UnityEngine/UnityEngine.AccessibilityModule.dll"
-r:"E:/Work/Unity/editors/2021.3.19f1/Editor/Data/Managed/UnityEngine/UnityEngine.AIModule.dll"
-r:"E:/Work/Unity/editors/2021.3.19f1/Editor/Data/Managed/UnityEngine/UnityEngine.AndroidJNIModule.dll"
-r:"E:/Work/Unity/editors/2021.3.19f1/Editor/Data/Managed/UnityEngine/UnityEngine.AnimationModule.dll"
-r:"E:/Work/Unity/editors/2021.3.19f1/Editor/Data/Managed/UnityEngine/UnityEngine.ARModule.dll"
-r:"E:/Work/Unity/editors/2021.3.19f1/Editor/Data/Managed/UnityEngine/UnityEngine.AssetBundleModule.dll"
-r:"E:/Work/Unity/editors/2021.3.19f1/Editor/Data/Managed/UnityEngine/UnityEngine.AudioModule.dll"
-r:"E:/Work/Unity/editors/2021.3.19f1/Editor/Data/Managed/UnityEngine/UnityEngine.ClothModule.dll"
-r:"E:/Work/Unity/editors/2021.3.19f1/Editor/Data/Managed/UnityEngine/UnityEngine.ClusterInputModule.dll"
-r:"E:/Work/Unity/editors/2021.3.19f1/Editor/Data/Managed/UnityEngine/UnityEngine.ClusterRendererModule.dll"
-r:"E:/Work/Unity/editors/2021.3.19f1/Editor/Data/Managed/UnityEngine/UnityEngine.CoreModule.dll"
-r:"E:/Work/Unity/editors/2021.3.19f1/Editor/Data/Managed/UnityEngine/UnityEngine.CrashReportingModule.dll"
-r:"E:/Work/Unity/editors/2021.3.19f1/Editor/Data/Managed/UnityEngine/UnityEngine.DirectorModule.dll"
-r:"E:/Work/Unity/editors/2021.3.19f1/Editor/Data/Managed/UnityEngine/UnityEngine.dll"
-r:"E:/Work/Unity/editors/2021.3.19f1/Editor/Data/Managed/UnityEngine/UnityEngine.DSPGraphModule.dll"
-r:"E:/Work/Unity/editors/2021.3.19f1/Editor/Data/Managed/UnityEngine/UnityEngine.GameCenterModule.dll"
-r:"E:/Work/Unity/editors/2021.3.19f1/Editor/Data/Managed/UnityEngine/UnityEngine.GIModule.dll"
-r:"E:/Work/Unity/editors/2021.3.19f1/Editor/Data/Managed/UnityEngine/UnityEngine.GridModule.dll"
-r:"E:/Work/Unity/editors/2021.3.19f1/Editor/Data/Managed/UnityEngine/UnityEngine.HotReloadModule.dll"
-r:"E:/Work/Unity/editors/2021.3.19f1/Editor/Data/Managed/UnityEngine/UnityEngine.ImageConversionModule.dll"
-r:"E:/Work/Unity/editors/2021.3.19f1/Editor/Data/Managed/UnityEngine/UnityEngine.IMGUIModule.dll"
-r:"E:/Work/Unity/editors/2021.3.19f1/Editor/Data/Managed/UnityEngine/UnityEngine.InputLegacyModule.dll"
-r:"E:/Work/Unity/editors/2021.3.19f1/Editor/Data/Managed/UnityEngine/UnityEngine.InputModule.dll"
-r:"E:/Work/Unity/editors/2021.3.19f1/Editor/Data/Managed/UnityEngine/UnityEngine.JSONSerializeModule.dll"
-r:"E:/Work/Unity/editors/2021.3.19f1/Editor/Data/Managed/UnityEngine/UnityEngine.LocalizationModule.dll"
-r:"E:/Work/Unity/editors/2021.3.19f1/Editor/Data/Managed/UnityEngine/UnityEngine.NVIDIAModule.dll"
-r:"E:/Work/Unity/editors/2021.3.19f1/Editor/Data/Managed/UnityEngine/UnityEngine.ParticleSystemModule.dll"
-r:"E:/Work/Unity/editors/2021.3.19f1/Editor/Data/Managed/UnityEngine/UnityEngine.PerformanceReportingModule.dll"
-r:"E:/Work/Unity/editors/2021.3.19f1/Editor/Data/Managed/UnityEngine/UnityEngine.Physics2DModule.dll"
-r:"E:/Work/Unity/editors/2021.3.19f1/Editor/Data/Managed/UnityEngine/UnityEngine.PhysicsModule.dll"
-r:"E:/Work/Unity/editors/2021.3.19f1/Editor/Data/Managed/UnityEngine/UnityEngine.ProfilerModule.dll"
-r:"E:/Work/Unity/editors/2021.3.19f1/Editor/Data/Managed/UnityEngine/UnityEngine.RuntimeInitializeOnLoadManagerInitializerModule.dll"
-r:"E:/Work/Unity/editors/2021.3.19f1/Editor/Data/Managed/UnityEngine/UnityEngine.ScreenCaptureModule.dll"
-r:"E:/Work/Unity/editors/2021.3.19f1/Editor/Data/Managed/UnityEngine/UnityEngine.SharedInternalsModule.dll"
-r:"E:/Work/Unity/editors/2021.3.19f1/Editor/Data/Managed/UnityEngine/UnityEngine.SpriteMaskModule.dll"
-r:"E:/Work/Unity/editors/2021.3.19f1/Editor/Data/Managed/UnityEngine/UnityEngine.SpriteShapeModule.dll"
-r:"E:/Work/Unity/editors/2021.3.19f1/Editor/Data/Managed/UnityEngine/UnityEngine.StreamingModule.dll"
-r:"E:/Work/Unity/editors/2021.3.19f1/Editor/Data/Managed/UnityEngine/UnityEngine.SubstanceModule.dll"
-r:"E:/Work/Unity/editors/2021.3.19f1/Editor/Data/Managed/UnityEngine/UnityEngine.SubsystemsModule.dll"
-r:"E:/Work/Unity/editors/2021.3.19f1/Editor/Data/Managed/UnityEngine/UnityEngine.TerrainModule.dll"
-r:"E:/Work/Unity/editors/2021.3.19f1/Editor/Data/Managed/UnityEngine/UnityEngine.TerrainPhysicsModule.dll"
-r:"E:/Work/Unity/editors/2021.3.19f1/Editor/Data/Managed/UnityEngine/UnityEngine.TextCoreFontEngineModule.dll"
-r:"E:/Work/Unity/editors/2021.3.19f1/Editor/Data/Managed/UnityEngine/UnityEngine.TextCoreTextEngineModule.dll"
-r:"E:/Work/Unity/editors/2021.3.19f1/Editor/Data/Managed/UnityEngine/UnityEngine.TextRenderingModule.dll"
-r:"E:/Work/Unity/editors/2021.3.19f1/Editor/Data/Managed/UnityEngine/UnityEngine.TilemapModule.dll"
-r:"E:/Work/Unity/editors/2021.3.19f1/Editor/Data/Managed/UnityEngine/UnityEngine.TLSModule.dll"
-r:"E:/Work/Unity/editors/2021.3.19f1/Editor/Data/Managed/UnityEngine/UnityEngine.UIElementsModule.dll"
-r:"E:/Work/Unity/editors/2021.3.19f1/Editor/Data/Managed/UnityEngine/UnityEngine.UIElementsNativeModule.dll"
-r:"E:/Work/Unity/editors/2021.3.19f1/Editor/Data/Managed/UnityEngine/UnityEngine.UIModule.dll"
-r:"E:/Work/Unity/editors/2021.3.19f1/Editor/Data/Managed/UnityEngine/UnityEngine.UmbraModule.dll"
-r:"E:/Work/Unity/editors/2021.3.19f1/Editor/Data/Managed/UnityEngine/UnityEngine.UNETModule.dll"
-r:"E:/Work/Unity/editors/2021.3.19f1/Editor/Data/Managed/UnityEngine/UnityEngine.UnityAnalyticsCommonModule.dll"
-r:"E:/Work/Unity/editors/2021.3.19f1/Editor/Data/Managed/UnityEngine/UnityEngine.UnityAnalyticsModule.dll"
-r:"E:/Work/Unity/editors/2021.3.19f1/Editor/Data/Managed/UnityEngine/UnityEngine.UnityConnectModule.dll"
-r:"E:/Work/Unity/editors/2021.3.19f1/Editor/Data/Managed/UnityEngine/UnityEngine.UnityCurlModule.dll"
-r:"E:/Work/Unity/editors/2021.3.19f1/Editor/Data/Managed/UnityEngine/UnityEngine.UnityTestProtocolModule.dll"
-r:"E:/Work/Unity/editors/2021.3.19f1/Editor/Data/Managed/UnityEngine/UnityEngine.UnityWebRequestAssetBundleModule.dll"
-r:"E:/Work/Unity/editors/2021.3.19f1/Editor/Data/Managed/UnityEngine/UnityEngine.UnityWebRequestAudioModule.dll"
-r:"E:/Work/Unity/editors/2021.3.19f1/Editor/Data/Managed/UnityEngine/UnityEngine.UnityWebRequestModule.dll"
-r:"E:/Work/Unity/editors/2021.3.19f1/Editor/Data/Managed/UnityEngine/UnityEngine.UnityWebRequestTextureModule.dll"
-r:"E:/Work/Unity/editors/2021.3.19f1/Editor/Data/Managed/UnityEngine/UnityEngine.UnityWebRequestWWWModule.dll"
-r:"E:/Work/Unity/editors/2021.3.19f1/Editor/Data/Managed/UnityEngine/UnityEngine.VehiclesModule.dll"
-r:"E:/Work/Unity/editors/2021.3.19f1/Editor/Data/Managed/UnityEngine/UnityEngine.VFXModule.dll"
-r:"E:/Work/Unity/editors/2021.3.19f1/Editor/Data/Managed/UnityEngine/UnityEngine.VideoModule.dll"
-r:"E:/Work/Unity/editors/2021.3.19f1/Editor/Data/Managed/UnityEngine/UnityEngine.VirtualTexturingModule.dll"
-r:"E:/Work/Unity/editors/2021.3.19f1/Editor/Data/Managed/UnityEngine/UnityEngine.VRModule.dll"
-r:"E:/Work/Unity/editors/2021.3.19f1/Editor/Data/Managed/UnityEngine/UnityEngine.WindModule.dll"
-r:"E:/Work/Unity/editors/2021.3.19f1/Editor/Data/Managed/UnityEngine/UnityEngine.XRModule.dll"
-r:"E:/Work/Unity/editors/2021.3.19f1/Editor/Data/PlaybackEngines/AndroidPlayer/Unity.Android.Gradle.dll"
-r:"E:/Work/Unity/editors/2021.3.19f1/Editor/Data/PlaybackEngines/AndroidPlayer/Unity.Android.Types.dll"
-r:"E:/Work/Unity/editors/2021.3.19f1/Editor/Data/PlaybackEngines/AndroidPlayer/UnityEditor.Android.Extensions.dll"
-r:"E:/Work/Unity/editors/2021.3.19f1/Editor/Data/PlaybackEngines/WindowsStandaloneSupport/UnityEditor.WindowsStandalone.Extensions.dll"
-r:"E:/Work/Unity/editors/2021.3.19f1/Editor/Data/UnityReferenceAssemblies/unity-4.8-api/Facades/Microsoft.Win32.Primitives.dll"
-r:"E:/Work/Unity/editors/2021.3.19f1/Editor/Data/UnityReferenceAssemblies/unity-4.8-api/Facades/netstandard.dll"
-r:"E:/Work/Unity/editors/2021.3.19f1/Editor/Data/UnityReferenceAssemblies/unity-4.8-api/Facades/System.AppContext.dll"
-r:"E:/Work/Unity/editors/2021.3.19f1/Editor/Data/UnityReferenceAssemblies/unity-4.8-api/Facades/System.Buffers.dll"
-r:"E:/Work/Unity/editors/2021.3.19f1/Editor/Data/UnityReferenceAssemblies/unity-4.8-api/Facades/System.Collections.Concurrent.dll"
-r:"E:/Work/Unity/editors/2021.3.19f1/Editor/Data/UnityReferenceAssemblies/unity-4.8-api/Facades/System.Collections.dll"
-r:"E:/Work/Unity/editors/2021.3.19f1/Editor/Data/UnityReferenceAssemblies/unity-4.8-api/Facades/System.Collections.NonGeneric.dll"
-r:"E:/Work/Unity/editors/2021.3.19f1/Editor/Data/UnityReferenceAssemblies/unity-4.8-api/Facades/System.Collections.Specialized.dll"
-r:"E:/Work/Unity/editors/2021.3.19f1/Editor/Data/UnityReferenceAssemblies/unity-4.8-api/Facades/System.ComponentModel.Annotations.dll"
-r:"E:/Work/Unity/editors/2021.3.19f1/Editor/Data/UnityReferenceAssemblies/unity-4.8-api/Facades/System.ComponentModel.dll"
-r:"E:/Work/Unity/editors/2021.3.19f1/Editor/Data/UnityReferenceAssemblies/unity-4.8-api/Facades/System.ComponentModel.EventBasedAsync.dll"
-r:"E:/Work/Unity/editors/2021.3.19f1/Editor/Data/UnityReferenceAssemblies/unity-4.8-api/Facades/System.ComponentModel.Primitives.dll"
-r:"E:/Work/Unity/editors/2021.3.19f1/Editor/Data/UnityReferenceAssemblies/unity-4.8-api/Facades/System.ComponentModel.TypeConverter.dll"
-r:"E:/Work/Unity/editors/2021.3.19f1/Editor/Data/UnityReferenceAssemblies/unity-4.8-api/Facades/System.Console.dll"
-r:"E:/Work/Unity/editors/2021.3.19f1/Editor/Data/UnityReferenceAssemblies/unity-4.8-api/Facades/System.Data.Common.dll"
-r:"E:/Work/Unity/editors/2021.3.19f1/Editor/Data/UnityReferenceAssemblies/unity-4.8-api/Facades/System.Diagnostics.Contracts.dll"
-r:"E:/Work/Unity/editors/2021.3.19f1/Editor/Data/UnityReferenceAssemblies/unity-4.8-api/Facades/System.Diagnostics.Debug.dll"
-r:"E:/Work/Unity/editors/2021.3.19f1/Editor/Data/UnityReferenceAssemblies/unity-4.8-api/Facades/System.Diagnostics.FileVersionInfo.dll"
-r:"E:/Work/Unity/editors/2021.3.19f1/Editor/Data/UnityReferenceAssemblies/unity-4.8-api/Facades/System.Diagnostics.Process.dll"
-r:"E:/Work/Unity/editors/2021.3.19f1/Editor/Data/UnityReferenceAssemblies/unity-4.8-api/Facades/System.Diagnostics.StackTrace.dll"
-r:"E:/Work/Unity/editors/2021.3.19f1/Editor/Data/UnityReferenceAssemblies/unity-4.8-api/Facades/System.Diagnostics.TextWriterTraceListener.dll"
-r:"E:/Work/Unity/editors/2021.3.19f1/Editor/Data/UnityReferenceAssemblies/unity-4.8-api/Facades/System.Diagnostics.Tools.dll"
-r:"E:/Work/Unity/editors/2021.3.19f1/Editor/Data/UnityReferenceAssemblies/unity-4.8-api/Facades/System.Diagnostics.TraceSource.dll"
-r:"E:/Work/Unity/editors/2021.3.19f1/Editor/Data/UnityReferenceAssemblies/unity-4.8-api/Facades/System.Drawing.Primitives.dll"
-r:"E:/Work/Unity/editors/2021.3.19f1/Editor/Data/UnityReferenceAssemblies/unity-4.8-api/Facades/System.Dynamic.Runtime.dll"
-r:"E:/Work/Unity/editors/2021.3.19f1/Editor/Data/UnityReferenceAssemblies/unity-4.8-api/Facades/System.Globalization.Calendars.dll"
-r:"E:/Work/Unity/editors/2021.3.19f1/Editor/Data/UnityReferenceAssemblies/unity-4.8-api/Facades/System.Globalization.dll"
-r:"E:/Work/Unity/editors/2021.3.19f1/Editor/Data/UnityReferenceAssemblies/unity-4.8-api/Facades/System.Globalization.Extensions.dll"
-r:"E:/Work/Unity/editors/2021.3.19f1/Editor/Data/UnityReferenceAssemblies/unity-4.8-api/Facades/System.IO.Compression.ZipFile.dll"
-r:"E:/Work/Unity/editors/2021.3.19f1/Editor/Data/UnityReferenceAssemblies/unity-4.8-api/Facades/System.IO.dll"
-r:"E:/Work/Unity/editors/2021.3.19f1/Editor/Data/UnityReferenceAssemblies/unity-4.8-api/Facades/System.IO.FileSystem.dll"
-r:"E:/Work/Unity/editors/2021.3.19f1/Editor/Data/UnityReferenceAssemblies/unity-4.8-api/Facades/System.IO.FileSystem.DriveInfo.dll"
-r:"E:/Work/Unity/editors/2021.3.19f1/Editor/Data/UnityReferenceAssemblies/unity-4.8-api/Facades/System.IO.FileSystem.Primitives.dll"
-r:"E:/Work/Unity/editors/2021.3.19f1/Editor/Data/UnityReferenceAssemblies/unity-4.8-api/Facades/System.IO.FileSystem.Watcher.dll"
-r:"E:/Work/Unity/editors/2021.3.19f1/Editor/Data/UnityReferenceAssemblies/unity-4.8-api/Facades/System.IO.IsolatedStorage.dll"
-r:"E:/Work/Unity/editors/2021.3.19f1/Editor/Data/UnityReferenceAssemblies/unity-4.8-api/Facades/System.IO.MemoryMappedFiles.dll"
-r:"E:/Work/Unity/editors/2021.3.19f1/Editor/Data/UnityReferenceAssemblies/unity-4.8-api/Facades/System.IO.Pipes.dll"
-r:"E:/Work/Unity/editors/2021.3.19f1/Editor/Data/UnityReferenceAssemblies/unity-4.8-api/Facades/System.IO.UnmanagedMemoryStream.dll"
-r:"E:/Work/Unity/editors/2021.3.19f1/Editor/Data/UnityReferenceAssemblies/unity-4.8-api/Facades/System.Linq.dll"
-r:"E:/Work/Unity/editors/2021.3.19f1/Editor/Data/UnityReferenceAssemblies/unity-4.8-api/Facades/System.Linq.Expressions.dll"
-r:"E:/Work/Unity/editors/2021.3.19f1/Editor/Data/UnityReferenceAssemblies/unity-4.8-api/Facades/System.Linq.Parallel.dll"
-r:"E:/Work/Unity/editors/2021.3.19f1/Editor/Data/UnityReferenceAssemblies/unity-4.8-api/Facades/System.Linq.Queryable.dll"
-r:"E:/Work/Unity/editors/2021.3.19f1/Editor/Data/UnityReferenceAssemblies/unity-4.8-api/Facades/System.Memory.dll"
-r:"E:/Work/Unity/editors/2021.3.19f1/Editor/Data/UnityReferenceAssemblies/unity-4.8-api/Facades/System.Net.Http.Rtc.dll"
-r:"E:/Work/Unity/editors/2021.3.19f1/Editor/Data/UnityReferenceAssemblies/unity-4.8-api/Facades/System.Net.NameResolution.dll"
-r:"E:/Work/Unity/editors/2021.3.19f1/Editor/Data/UnityReferenceAssemblies/unity-4.8-api/Facades/System.Net.NetworkInformation.dll"
-r:"E:/Work/Unity/editors/2021.3.19f1/Editor/Data/UnityReferenceAssemblies/unity-4.8-api/Facades/System.Net.Ping.dll"
-r:"E:/Work/Unity/editors/2021.3.19f1/Editor/Data/UnityReferenceAssemblies/unity-4.8-api/Facades/System.Net.Primitives.dll"
-r:"E:/Work/Unity/editors/2021.3.19f1/Editor/Data/UnityReferenceAssemblies/unity-4.8-api/Facades/System.Net.Requests.dll"
-r:"E:/Work/Unity/editors/2021.3.19f1/Editor/Data/UnityReferenceAssemblies/unity-4.8-api/Facades/System.Net.Security.dll"
-r:"E:/Work/Unity/editors/2021.3.19f1/Editor/Data/UnityReferenceAssemblies/unity-4.8-api/Facades/System.Net.Sockets.dll"
-r:"E:/Work/Unity/editors/2021.3.19f1/Editor/Data/UnityReferenceAssemblies/unity-4.8-api/Facades/System.Net.WebHeaderCollection.dll"
-r:"E:/Work/Unity/editors/2021.3.19f1/Editor/Data/UnityReferenceAssemblies/unity-4.8-api/Facades/System.Net.WebSockets.Client.dll"
-r:"E:/Work/Unity/editors/2021.3.19f1/Editor/Data/UnityReferenceAssemblies/unity-4.8-api/Facades/System.Net.WebSockets.dll"
-r:"E:/Work/Unity/editors/2021.3.19f1/Editor/Data/UnityReferenceAssemblies/unity-4.8-api/Facades/System.ObjectModel.dll"
-r:"E:/Work/Unity/editors/2021.3.19f1/Editor/Data/UnityReferenceAssemblies/unity-4.8-api/Facades/System.Reflection.DispatchProxy.dll"
-r:"E:/Work/Unity/editors/2021.3.19f1/Editor/Data/UnityReferenceAssemblies/unity-4.8-api/Facades/System.Reflection.dll"
-r:"E:/Work/Unity/editors/2021.3.19f1/Editor/Data/UnityReferenceAssemblies/unity-4.8-api/Facades/System.Reflection.Emit.dll"
-r:"E:/Work/Unity/editors/2021.3.19f1/Editor/Data/UnityReferenceAssemblies/unity-4.8-api/Facades/System.Reflection.Emit.ILGeneration.dll"
-r:"E:/Work/Unity/editors/2021.3.19f1/Editor/Data/UnityReferenceAssemblies/unity-4.8-api/Facades/System.Reflection.Emit.Lightweight.dll"
-r:"E:/Work/Unity/editors/2021.3.19f1/Editor/Data/UnityReferenceAssemblies/unity-4.8-api/Facades/System.Reflection.Extensions.dll"
-r:"E:/Work/Unity/editors/2021.3.19f1/Editor/Data/UnityReferenceAssemblies/unity-4.8-api/Facades/System.Reflection.Primitives.dll"
-r:"E:/Work/Unity/editors/2021.3.19f1/Editor/Data/UnityReferenceAssemblies/unity-4.8-api/Facades/System.Resources.Reader.dll"
-r:"E:/Work/Unity/editors/2021.3.19f1/Editor/Data/UnityReferenceAssemblies/unity-4.8-api/Facades/System.Resources.ResourceManager.dll"
-r:"E:/Work/Unity/editors/2021.3.19f1/Editor/Data/UnityReferenceAssemblies/unity-4.8-api/Facades/System.Resources.Writer.dll"
-r:"E:/Work/Unity/editors/2021.3.19f1/Editor/Data/UnityReferenceAssemblies/unity-4.8-api/Facades/System.Runtime.CompilerServices.VisualC.dll"
-r:"E:/Work/Unity/editors/2021.3.19f1/Editor/Data/UnityReferenceAssemblies/unity-4.8-api/Facades/System.Runtime.dll"
-r:"E:/Work/Unity/editors/2021.3.19f1/Editor/Data/UnityReferenceAssemblies/unity-4.8-api/Facades/System.Runtime.Extensions.dll"
-r:"E:/Work/Unity/editors/2021.3.19f1/Editor/Data/UnityReferenceAssemblies/unity-4.8-api/Facades/System.Runtime.Handles.dll"
-r:"E:/Work/Unity/editors/2021.3.19f1/Editor/Data/UnityReferenceAssemblies/unity-4.8-api/Facades/System.Runtime.InteropServices.dll"
-r:"E:/Work/Unity/editors/2021.3.19f1/Editor/Data/UnityReferenceAssemblies/unity-4.8-api/Facades/System.Runtime.InteropServices.RuntimeInformation.dll"
-r:"E:/Work/Unity/editors/2021.3.19f1/Editor/Data/UnityReferenceAssemblies/unity-4.8-api/Facades/System.Runtime.InteropServices.WindowsRuntime.dll"
-r:"E:/Work/Unity/editors/2021.3.19f1/Editor/Data/UnityReferenceAssemblies/unity-4.8-api/Facades/System.Runtime.Numerics.dll"
-r:"E:/Work/Unity/editors/2021.3.19f1/Editor/Data/UnityReferenceAssemblies/unity-4.8-api/Facades/System.Runtime.Serialization.Formatters.dll"
-r:"E:/Work/Unity/editors/2021.3.19f1/Editor/Data/UnityReferenceAssemblies/unity-4.8-api/Facades/System.Runtime.Serialization.Json.dll"
-r:"E:/Work/Unity/editors/2021.3.19f1/Editor/Data/UnityReferenceAssemblies/unity-4.8-api/Facades/System.Runtime.Serialization.Primitives.dll"
-r:"E:/Work/Unity/editors/2021.3.19f1/Editor/Data/UnityReferenceAssemblies/unity-4.8-api/Facades/System.Runtime.Serialization.Xml.dll"
-r:"E:/Work/Unity/editors/2021.3.19f1/Editor/Data/UnityReferenceAssemblies/unity-4.8-api/Facades/System.Security.Claims.dll"
-r:"E:/Work/Unity/editors/2021.3.19f1/Editor/Data/UnityReferenceAssemblies/unity-4.8-api/Facades/System.Security.Cryptography.Algorithms.dll"
-r:"E:/Work/Unity/editors/2021.3.19f1/Editor/Data/UnityReferenceAssemblies/unity-4.8-api/Facades/System.Security.Cryptography.Csp.dll"
-r:"E:/Work/Unity/editors/2021.3.19f1/Editor/Data/UnityReferenceAssemblies/unity-4.8-api/Facades/System.Security.Cryptography.Encoding.dll"
-r:"E:/Work/Unity/editors/2021.3.19f1/Editor/Data/UnityReferenceAssemblies/unity-4.8-api/Facades/System.Security.Cryptography.Primitives.dll"
-r:"E:/Work/Unity/editors/2021.3.19f1/Editor/Data/UnityReferenceAssemblies/unity-4.8-api/Facades/System.Security.Cryptography.X509Certificates.dll"
-r:"E:/Work/Unity/editors/2021.3.19f1/Editor/Data/UnityReferenceAssemblies/unity-4.8-api/Facades/System.Security.Principal.dll"
-r:"E:/Work/Unity/editors/2021.3.19f1/Editor/Data/UnityReferenceAssemblies/unity-4.8-api/Facades/System.Security.SecureString.dll"
-r:"E:/Work/Unity/editors/2021.3.19f1/Editor/Data/UnityReferenceAssemblies/unity-4.8-api/Facades/System.ServiceModel.Duplex.dll"
-r:"E:/Work/Unity/editors/2021.3.19f1/Editor/Data/UnityReferenceAssemblies/unity-4.8-api/Facades/System.ServiceModel.Http.dll"
-r:"E:/Work/Unity/editors/2021.3.19f1/Editor/Data/UnityReferenceAssemblies/unity-4.8-api/Facades/System.ServiceModel.NetTcp.dll"
-r:"E:/Work/Unity/editors/2021.3.19f1/Editor/Data/UnityReferenceAssemblies/unity-4.8-api/Facades/System.ServiceModel.Primitives.dll"
-r:"E:/Work/Unity/editors/2021.3.19f1/Editor/Data/UnityReferenceAssemblies/unity-4.8-api/Facades/System.ServiceModel.Security.dll"
-r:"E:/Work/Unity/editors/2021.3.19f1/Editor/Data/UnityReferenceAssemblies/unity-4.8-api/Facades/System.Text.Encoding.dll"
-r:"E:/Work/Unity/editors/2021.3.19f1/Editor/Data/UnityReferenceAssemblies/unity-4.8-api/Facades/System.Text.Encoding.Extensions.dll"
-r:"E:/Work/Unity/editors/2021.3.19f1/Editor/Data/UnityReferenceAssemblies/unity-4.8-api/Facades/System.Text.RegularExpressions.dll"
-r:"E:/Work/Unity/editors/2021.3.19f1/Editor/Data/UnityReferenceAssemblies/unity-4.8-api/Facades/System.Threading.dll"
-r:"E:/Work/Unity/editors/2021.3.19f1/Editor/Data/UnityReferenceAssemblies/unity-4.8-api/Facades/System.Threading.Overlapped.dll"
-r:"E:/Work/Unity/editors/2021.3.19f1/Editor/Data/UnityReferenceAssemblies/unity-4.8-api/Facades/System.Threading.Tasks.dll"
-r:"E:/Work/Unity/editors/2021.3.19f1/Editor/Data/UnityReferenceAssemblies/unity-4.8-api/Facades/System.Threading.Tasks.Extensions.dll"
-r:"E:/Work/Unity/editors/2021.3.19f1/Editor/Data/UnityReferenceAssemblies/unity-4.8-api/Facades/System.Threading.Tasks.Parallel.dll"
-r:"E:/Work/Unity/editors/2021.3.19f1/Editor/Data/UnityReferenceAssemblies/unity-4.8-api/Facades/System.Threading.Thread.dll"
-r:"E:/Work/Unity/editors/2021.3.19f1/Editor/Data/UnityReferenceAssemblies/unity-4.8-api/Facades/System.Threading.ThreadPool.dll"
-r:"E:/Work/Unity/editors/2021.3.19f1/Editor/Data/UnityReferenceAssemblies/unity-4.8-api/Facades/System.Threading.Timer.dll"
-r:"E:/Work/Unity/editors/2021.3.19f1/Editor/Data/UnityReferenceAssemblies/unity-4.8-api/Facades/System.ValueTuple.dll"
-r:"E:/Work/Unity/editors/2021.3.19f1/Editor/Data/UnityReferenceAssemblies/unity-4.8-api/Facades/System.Xml.ReaderWriter.dll"
-r:"E:/Work/Unity/editors/2021.3.19f1/Editor/Data/UnityReferenceAssemblies/unity-4.8-api/Facades/System.Xml.XDocument.dll"
-r:"E:/Work/Unity/editors/2021.3.19f1/Editor/Data/UnityReferenceAssemblies/unity-4.8-api/Facades/System.Xml.XmlDocument.dll"
-r:"E:/Work/Unity/editors/2021.3.19f1/Editor/Data/UnityReferenceAssemblies/unity-4.8-api/Facades/System.Xml.XmlSerializer.dll"
-r:"E:/Work/Unity/editors/2021.3.19f1/Editor/Data/UnityReferenceAssemblies/unity-4.8-api/Facades/System.Xml.XPath.dll"
-r:"E:/Work/Unity/editors/2021.3.19f1/Editor/Data/UnityReferenceAssemblies/unity-4.8-api/Facades/System.Xml.XPath.XDocument.dll"
-r:"E:/Work/Unity/editors/2021.3.19f1/Editor/Data/UnityReferenceAssemblies/unity-4.8-api/Microsoft.CSharp.dll"
-r:"E:/Work/Unity/editors/2021.3.19f1/Editor/Data/UnityReferenceAssemblies/unity-4.8-api/mscorlib.dll"
-r:"E:/Work/Unity/editors/2021.3.19f1/Editor/Data/UnityReferenceAssemblies/unity-4.8-api/System.ComponentModel.Composition.dll"
-r:"E:/Work/Unity/editors/2021.3.19f1/Editor/Data/UnityReferenceAssemblies/unity-4.8-api/System.Core.dll"
-r:"E:/Work/Unity/editors/2021.3.19f1/Editor/Data/UnityReferenceAssemblies/unity-4.8-api/System.Data.DataSetExtensions.dll"
-r:"E:/Work/Unity/editors/2021.3.19f1/Editor/Data/UnityReferenceAssemblies/unity-4.8-api/System.Data.dll"
-r:"E:/Work/Unity/editors/2021.3.19f1/Editor/Data/UnityReferenceAssemblies/unity-4.8-api/System.dll"
-r:"E:/Work/Unity/editors/2021.3.19f1/Editor/Data/UnityReferenceAssemblies/unity-4.8-api/System.Drawing.dll"
-r:"E:/Work/Unity/editors/2021.3.19f1/Editor/Data/UnityReferenceAssemblies/unity-4.8-api/System.IO.Compression.dll"
-r:"E:/Work/Unity/editors/2021.3.19f1/Editor/Data/UnityReferenceAssemblies/unity-4.8-api/System.IO.Compression.FileSystem.dll"
-r:"E:/Work/Unity/editors/2021.3.19f1/Editor/Data/UnityReferenceAssemblies/unity-4.8-api/System.Net.Http.dll"
-r:"E:/Work/Unity/editors/2021.3.19f1/Editor/Data/UnityReferenceAssemblies/unity-4.8-api/System.Numerics.dll"
-r:"E:/Work/Unity/editors/2021.3.19f1/Editor/Data/UnityReferenceAssemblies/unity-4.8-api/System.Numerics.Vectors.dll"
-r:"E:/Work/Unity/editors/2021.3.19f1/Editor/Data/UnityReferenceAssemblies/unity-4.8-api/System.Runtime.Serialization.dll"
-r:"E:/Work/Unity/editors/2021.3.19f1/Editor/Data/UnityReferenceAssemblies/unity-4.8-api/System.Transactions.dll"
-r:"E:/Work/Unity/editors/2021.3.19f1/Editor/Data/UnityReferenceAssemblies/unity-4.8-api/System.Xml.dll"
-r:"E:/Work/Unity/editors/2021.3.19f1/Editor/Data/UnityReferenceAssemblies/unity-4.8-api/System.Xml.Linq.dll"
-r:"E:/Work/Unity/unity_learning/MouseRushGitlap/mouserush/Library/PackageCache/com.unity.burst@1.6.6/Unity.Burst.CodeGen/Unity.Burst.Cecil.dll"
-r:"E:/Work/Unity/unity_learning/MouseRushGitlap/mouserush/Library/PackageCache/com.unity.burst@1.6.6/Unity.Burst.CodeGen/Unity.Burst.Cecil.Mdb.dll"
-r:"E:/Work/Unity/unity_learning/MouseRushGitlap/mouserush/Library/PackageCache/com.unity.burst@1.6.6/Unity.Burst.CodeGen/Unity.Burst.Cecil.Pdb.dll"
-r:"E:/Work/Unity/unity_learning/MouseRushGitlap/mouserush/Library/PackageCache/com.unity.burst@1.6.6/Unity.Burst.CodeGen/Unity.Burst.Cecil.Rocks.dll"
-r:"E:/Work/Unity/unity_learning/MouseRushGitlap/mouserush/Library/PackageCache/com.unity.burst@1.6.6/Unity.Burst.Unsafe.dll"
-r:"E:/Work/Unity/unity_learning/MouseRushGitlap/mouserush/Library/PackageCache/com.unity.collab-proxy@2.0.0/Lib/Editor/PlasticSCM/log4netPlastic.dll"
-r:"E:/Work/Unity/unity_learning/MouseRushGitlap/mouserush/Library/PackageCache/com.unity.collab-proxy@2.0.0/Lib/Editor/PlasticSCM/Unity.Plastic.Antlr3.Runtime.dll"
-r:"E:/Work/Unity/unity_learning/MouseRushGitlap/mouserush/Library/PackageCache/com.unity.collab-proxy@2.0.0/Lib/Editor/PlasticSCM/Unity.Plastic.Newtonsoft.Json.dll"
-r:"E:/Work/Unity/unity_learning/MouseRushGitlap/mouserush/Library/PackageCache/com.unity.collab-proxy@2.0.0/Lib/Editor/PlasticSCM/unityplastic.dll"
-r:"E:/Work/Unity/unity_learning/MouseRushGitlap/mouserush/Library/PackageCache/com.unity.ext.nunit@1.0.6/net35/unity-custom/nunit.framework.dll"
-r:"E:/Work/Unity/unity_learning/MouseRushGitlap/mouserush/Library/PackageCache/com.unity.nuget.newtonsoft-json@3.0.2/Runtime/Newtonsoft.Json.dll"
-r:"Library/Bee/artifacts/1300b0aE.dag/Unity.EditorCoroutines.Editor.ref.dll"
-r:"Library/Bee/artifacts/1300b0aE.dag/Unity.MemoryProfiler.ref.dll"
-r:"Library/Bee/artifacts/1300b0aE.dag/UnityEditor.TestRunner.ref.dll"
-r:"Library/Bee/artifacts/1300b0aE.dag/UnityEditor.UI.ref.dll"
-r:"Library/Bee/artifacts/1300b0aE.dag/UnityEngine.TestRunner.ref.dll"
-r:"Library/Bee/artifacts/1300b0aE.dag/UnityEngine.UI.ref.dll"
"Library/PackageCache/com.unity.memoryprofiler@0.7.1-preview.1/Editor/AssemblyInfo.cs"
"Library/PackageCache/com.unity.memoryprofiler@0.7.1-preview.1/Editor/Containers/BlockList.cs"
"Library/PackageCache/com.unity.memoryprofiler@0.7.1-preview.1/Editor/Containers/DynamicArray.cs"
"Library/PackageCache/com.unity.memoryprofiler@0.7.1-preview.1/Editor/Containers/DynamicBlockArray.cs"
"Library/PackageCache/com.unity.memoryprofiler@0.7.1-preview.1/Editor/Containers/UnsafeDataUtility.cs"
"Library/PackageCache/com.unity.memoryprofiler@0.7.1-preview.1/Editor/Database/Column/Column.cs"
"Library/PackageCache/com.unity.memoryprofiler@0.7.1-preview.1/Editor/Database/Column/ColumnError.cs"
"Library/PackageCache/com.unity.memoryprofiler@0.7.1-preview.1/Editor/Database/Column/ColumnTyped.cs"
"Library/PackageCache/com.unity.memoryprofiler@0.7.1-preview.1/Editor/Database/Column/ExpandColumnTyped.cs"
"Library/PackageCache/com.unity.memoryprofiler@0.7.1-preview.1/Editor/Database/Column/MetaColumn.cs"
"Library/PackageCache/com.unity.memoryprofiler@0.7.1-preview.1/Editor/Database/DataFormatter.cs"
"Library/PackageCache/com.unity.memoryprofiler@0.7.1-preview.1/Editor/Database/Link.cs"
"Library/PackageCache/com.unity.memoryprofiler@0.7.1-preview.1/Editor/Database/Operation/ColumnCreator.cs"
"Library/PackageCache/com.unity.memoryprofiler@0.7.1-preview.1/Editor/Database/Operation/Comparer.cs"
"Library/PackageCache/com.unity.memoryprofiler@0.7.1-preview.1/Editor/Database/Operation/DiffTable.cs"
"Library/PackageCache/com.unity.memoryprofiler@0.7.1-preview.1/Editor/Database/Operation/Expression.cs"
"Library/PackageCache/com.unity.memoryprofiler@0.7.1-preview.1/Editor/Database/Operation/filter/DefaultSort.cs"
"Library/PackageCache/com.unity.memoryprofiler@0.7.1-preview.1/Editor/Database/Operation/filter/Filter.cs"
"Library/PackageCache/com.unity.memoryprofiler@0.7.1-preview.1/Editor/Database/Operation/filter/Group.cs"
"Library/PackageCache/com.unity.memoryprofiler@0.7.1-preview.1/Editor/Database/Operation/filter/Match.cs"
"Library/PackageCache/com.unity.memoryprofiler@0.7.1-preview.1/Editor/Database/Operation/filter/Multi.cs"
"Library/PackageCache/com.unity.memoryprofiler@0.7.1-preview.1/Editor/Database/Operation/filter/Sort.cs"
"Library/PackageCache/com.unity.memoryprofiler@0.7.1-preview.1/Editor/Database/Operation/GroupedColumnTyped.cs"
"Library/PackageCache/com.unity.memoryprofiler@0.7.1-preview.1/Editor/Database/Operation/GroupedTable.cs"
"Library/PackageCache/com.unity.memoryprofiler@0.7.1-preview.1/Editor/Database/Operation/Grouping.cs"
"Library/PackageCache/com.unity.memoryprofiler@0.7.1-preview.1/Editor/Database/Operation/IGroupedColumn.cs"
"Library/PackageCache/com.unity.memoryprofiler@0.7.1-preview.1/Editor/Database/Operation/IndexedColumnTyped.cs"
"Library/PackageCache/com.unity.memoryprofiler@0.7.1-preview.1/Editor/Database/Operation/IndexedTable.cs"
"Library/PackageCache/com.unity.memoryprofiler@0.7.1-preview.1/Editor/Database/Operation/Operation.cs"
"Library/PackageCache/com.unity.memoryprofiler@0.7.1-preview.1/Editor/Database/Operation/SortOrder.cs"
"Library/PackageCache/com.unity.memoryprofiler@0.7.1-preview.1/Editor/Database/Operation/ValueStringArrayCache.cs"
"Library/PackageCache/com.unity.memoryprofiler@0.7.1-preview.1/Editor/Database/Schema/ParameterSet.cs"
"Library/PackageCache/com.unity.memoryprofiler@0.7.1-preview.1/Editor/Database/Schema/Schema.cs"
"Library/PackageCache/com.unity.memoryprofiler@0.7.1-preview.1/Editor/Database/Schema/SchemaAggregate.cs"
"Library/PackageCache/com.unity.memoryprofiler@0.7.1-preview.1/Editor/Database/SizeDataFormatter.cs"
"Library/PackageCache/com.unity.memoryprofiler@0.7.1-preview.1/Editor/Database/Soa/DataArray.cs"
"Library/PackageCache/com.unity.memoryprofiler@0.7.1-preview.1/Editor/Database/Table/ExpandTable.cs"
"Library/PackageCache/com.unity.memoryprofiler@0.7.1-preview.1/Editor/Database/Table/MetaTable.cs"
"Library/PackageCache/com.unity.memoryprofiler@0.7.1-preview.1/Editor/Database/Table/Table.cs"
"Library/PackageCache/com.unity.memoryprofiler@0.7.1-preview.1/Editor/Database/View/Select.cs"
"Library/PackageCache/com.unity.memoryprofiler@0.7.1-preview.1/Editor/Database/View/ViewColumn.cs"
"Library/PackageCache/com.unity.memoryprofiler@0.7.1-preview.1/Editor/Database/View/ViewColumnConst.cs"
"Library/PackageCache/com.unity.memoryprofiler@0.7.1-preview.1/Editor/Database/View/ViewColumnExpressionType.cs"
"Library/PackageCache/com.unity.memoryprofiler@0.7.1-preview.1/Editor/Database/View/ViewColumnFirstMatch.cs"
"Library/PackageCache/com.unity.memoryprofiler@0.7.1-preview.1/Editor/Database/View/ViewColumnNode.cs"
"Library/PackageCache/com.unity.memoryprofiler@0.7.1-preview.1/Editor/Database/View/ViewColumnNodeMergeTyped.cs"
"Library/PackageCache/com.unity.memoryprofiler@0.7.1-preview.1/Editor/Database/View/ViewColumnRowIndex.cs"
"Library/PackageCache/com.unity.memoryprofiler@0.7.1-preview.1/Editor/Database/View/ViewColumnTyped.cs"
"Library/PackageCache/com.unity.memoryprofiler@0.7.1-preview.1/Editor/Database/View/ViewScheme.cs"
"Library/PackageCache/com.unity.memoryprofiler@0.7.1-preview.1/Editor/Database/View/ViewTable.cs"
"Library/PackageCache/com.unity.memoryprofiler@0.7.1-preview.1/Editor/Database/View/Where.cs"
"Library/PackageCache/com.unity.memoryprofiler@0.7.1-preview.1/Editor/Diagnostics/Diagnostics.cs"
"Library/PackageCache/com.unity.memoryprofiler@0.7.1-preview.1/Editor/MemoryProfilerWindow.cs"
"Library/PackageCache/com.unity.memoryprofiler@0.7.1-preview.1/Editor/MemoryProfilerWindowContent.cs"
"Library/PackageCache/com.unity.memoryprofiler@0.7.1-preview.1/Editor/MemorySnapshot/Format/IReader.cs"
"Library/PackageCache/com.unity.memoryprofiler@0.7.1-preview.1/Editor/MemorySnapshot/Format/LowLevel/LowLevelFileReader.cs"
"Library/PackageCache/com.unity.memoryprofiler@0.7.1-preview.1/Editor/MemorySnapshot/Format/LowLevel/ReadCommandBufferUtils.cs"
"Library/PackageCache/com.unity.memoryprofiler@0.7.1-preview.1/Editor/MemorySnapshot/Format/QueriedSnapshot/Block.cs"
"Library/PackageCache/com.unity.memoryprofiler@0.7.1-preview.1/Editor/MemorySnapshot/Format/QueriedSnapshot/Entry.cs"
"Library/PackageCache/com.unity.memoryprofiler@0.7.1-preview.1/Editor/MemorySnapshot/Format/QueriedSnapshot/EntryType.cs"
"Library/PackageCache/com.unity.memoryprofiler@0.7.1-preview.1/Editor/MemorySnapshot/Format/QueriedSnapshot/FileReader.cs"
"Library/PackageCache/com.unity.memoryprofiler@0.7.1-preview.1/Editor/MemorySnapshot/Format/QueriedSnapshot/FormatDataTypes.cs"
"Library/PackageCache/com.unity.memoryprofiler@0.7.1-preview.1/Editor/MemorySnapshot/Format/QueriedSnapshot/GenericReadOperation.cs"
"Library/PackageCache/com.unity.memoryprofiler@0.7.1-preview.1/Editor/MemorySnapshot/Format/QueriedSnapshot/IFileReader.cs"
"Library/PackageCache/com.unity.memoryprofiler@0.7.1-preview.1/Editor/MemorySnapshot/Format/QueriedSnapshot/ReadError.cs"
"Library/PackageCache/com.unity.memoryprofiler@0.7.1-preview.1/Editor/Profiler/APITable.cs"
"Library/PackageCache/com.unity.memoryprofiler@0.7.1-preview.1/Editor/Profiler/CachedSnapshot.cs"
"Library/PackageCache/com.unity.memoryprofiler@0.7.1-preview.1/Editor/Profiler/DataSourceFromAPI.cs"
"Library/PackageCache/com.unity.memoryprofiler@0.7.1-preview.1/Editor/Profiler/ManagedDataCrawler.cs"
"Library/PackageCache/com.unity.memoryprofiler@0.7.1-preview.1/Editor/Profiler/ObjectAllTable.cs"
"Library/PackageCache/com.unity.memoryprofiler@0.7.1-preview.1/Editor/Profiler/ObjectArrayTable.cs"
"Library/PackageCache/com.unity.memoryprofiler@0.7.1-preview.1/Editor/Profiler/ObjectData.cs"
"Library/PackageCache/com.unity.memoryprofiler@0.7.1-preview.1/Editor/Profiler/ObjectDataFormatter.cs"
"Library/PackageCache/com.unity.memoryprofiler@0.7.1-preview.1/Editor/Profiler/ObjectDataTypeFormatter.cs"
"Library/PackageCache/com.unity.memoryprofiler@0.7.1-preview.1/Editor/Profiler/ObjectFieldTable.cs"
"Library/PackageCache/com.unity.memoryprofiler@0.7.1-preview.1/Editor/Profiler/ObjectListTable.cs"
"Library/PackageCache/com.unity.memoryprofiler@0.7.1-preview.1/Editor/Profiler/ObjectReferenceTable.cs"
"Library/PackageCache/com.unity.memoryprofiler@0.7.1-preview.1/Editor/Profiler/ObjectSingleTable.cs"
"Library/PackageCache/com.unity.memoryprofiler@0.7.1-preview.1/Editor/Profiler/RawScheme.cs"
"Library/PackageCache/com.unity.memoryprofiler@0.7.1-preview.1/Editor/Profiler/VMTools.cs"
"Library/PackageCache/com.unity.memoryprofiler@0.7.1-preview.1/Editor/UI/AnalysisWindow/AnalysisWindow.cs"
"Library/PackageCache/com.unity.memoryprofiler@0.7.1-preview.1/Editor/UI/AnalysisWindow/MemoryUsageBreakdown.cs"
"Library/PackageCache/com.unity.memoryprofiler@0.7.1-preview.1/Editor/UI/AnalysisWindow/MemoryUsageBreakdownElement.cs"
"Library/PackageCache/com.unity.memoryprofiler@0.7.1-preview.1/Editor/UI/AnalysisWindow/MemoryUsageSummary.cs"
"Library/PackageCache/com.unity.memoryprofiler@0.7.1-preview.1/Editor/UI/AnalysisWindow/OldHistoryLogic.cs"
"Library/PackageCache/com.unity.memoryprofiler@0.7.1-preview.1/Editor/UI/AnalysisWindow/OldViewLogic.cs"
"Library/PackageCache/com.unity.memoryprofiler@0.7.1-preview.1/Editor/UI/AnalysisWindow/SummaryPane.cs"
"Library/PackageCache/com.unity.memoryprofiler@0.7.1-preview.1/Editor/UI/AnalysisWindow/TopIssueItem.cs"
"Library/PackageCache/com.unity.memoryprofiler@0.7.1-preview.1/Editor/UI/AnalysisWindow/TopIssues.cs"
"Library/PackageCache/com.unity.memoryprofiler@0.7.1-preview.1/Editor/UI/DatabaseSpreadsheet.cs"
"Library/PackageCache/com.unity.memoryprofiler@0.7.1-preview.1/Editor/UI/History.cs"
"Library/PackageCache/com.unity.memoryprofiler@0.7.1-preview.1/Editor/UI/Hotkey.cs"
"Library/PackageCache/com.unity.memoryprofiler@0.7.1-preview.1/Editor/UI/Icons.cs"
"Library/PackageCache/com.unity.memoryprofiler@0.7.1-preview.1/Editor/UI/MemoryMap/MemoryMap.cs"
"Library/PackageCache/com.unity.memoryprofiler@0.7.1-preview.1/Editor/UI/MemoryMap/MemoryMapBase.cs"
"Library/PackageCache/com.unity.memoryprofiler@0.7.1-preview.1/Editor/UI/MemoryMap/MemoryMapDiff.cs"
"Library/PackageCache/com.unity.memoryprofiler@0.7.1-preview.1/Editor/UI/MemoryMap/MemoryRegion.cs"
"Library/PackageCache/com.unity.memoryprofiler@0.7.1-preview.1/Editor/UI/MemoryMapDiffPane.cs"
"Library/PackageCache/com.unity.memoryprofiler@0.7.1-preview.1/Editor/UI/MemoryMapPane.cs"
"Library/PackageCache/com.unity.memoryprofiler@0.7.1-preview.1/Editor/UI/MemoryProfilerAnalytics.cs"
"Library/PackageCache/com.unity.memoryprofiler@0.7.1-preview.1/Editor/UI/MemoryProfilerSettings.cs"
"Library/PackageCache/com.unity.memoryprofiler@0.7.1-preview.1/Editor/UI/MemorySampleSelection.cs"
"Library/PackageCache/com.unity.memoryprofiler@0.7.1-preview.1/Editor/UI/MeshBuilder.cs"
"Library/PackageCache/com.unity.memoryprofiler@0.7.1-preview.1/Editor/UI/ObjectBreakdowns/Breakdowns/AllTrackedMemoryBreakdown/AllTrackedMemoryBreakdownModel.cs"
"Library/PackageCache/com.unity.memoryprofiler@0.7.1-preview.1/Editor/UI/ObjectBreakdowns/Breakdowns/AllTrackedMemoryBreakdown/AllTrackedMemoryBreakdownModelBuilder.cs"
"Library/PackageCache/com.unity.memoryprofiler@0.7.1-preview.1/Editor/UI/ObjectBreakdowns/Breakdowns/AllTrackedMemoryBreakdown/AllTrackedMemoryBreakdownViewController.cs"
"Library/PackageCache/com.unity.memoryprofiler@0.7.1-preview.1/Editor/UI/ObjectBreakdowns/Breakdowns/AllTrackedMemoryBreakdown/Cells/AllTrackedMemoryDescriptionCell.cs"
"Library/PackageCache/com.unity.memoryprofiler@0.7.1-preview.1/Editor/UI/ObjectBreakdowns/Breakdowns/Shared/AsyncWorker.cs"
"Library/PackageCache/com.unity.memoryprofiler@0.7.1-preview.1/Editor/UI/ObjectBreakdowns/Breakdowns/Shared/Controls/ActivityIndicator.cs"
"Library/PackageCache/com.unity.memoryprofiler@0.7.1-preview.1/Editor/UI/ObjectBreakdowns/Breakdowns/Shared/Controls/ActivityIndicatorOverlay.cs"
"Library/PackageCache/com.unity.memoryprofiler@0.7.1-preview.1/Editor/UI/ObjectBreakdowns/Breakdowns/Shared/Controls/ProgressBar.cs"
"Library/PackageCache/com.unity.memoryprofiler@0.7.1-preview.1/Editor/UI/ObjectBreakdowns/Breakdowns/Shared/Data/TreeModel.cs"
"Library/PackageCache/com.unity.memoryprofiler@0.7.1-preview.1/Editor/UI/ObjectBreakdowns/Breakdowns/Shared/Data/TreeModelUtility.cs"
"Library/PackageCache/com.unity.memoryprofiler@0.7.1-preview.1/Editor/UI/ObjectBreakdowns/Breakdowns/UnityObjectsBreakdown/Cells/UnityObjectsDescriptionCell.cs"
"Library/PackageCache/com.unity.memoryprofiler@0.7.1-preview.1/Editor/UI/ObjectBreakdowns/Breakdowns/UnityObjectsBreakdown/UnityObjectsBreakdownModel.cs"
"Library/PackageCache/com.unity.memoryprofiler@0.7.1-preview.1/Editor/UI/ObjectBreakdowns/Breakdowns/UnityObjectsBreakdown/UnityObjectsBreakdownModelBuilder.cs"
"Library/PackageCache/com.unity.memoryprofiler@0.7.1-preview.1/Editor/UI/ObjectBreakdowns/Breakdowns/UnityObjectsBreakdown/UnityObjectsBreakdownViewController.cs"
"Library/PackageCache/com.unity.memoryprofiler@0.7.1-preview.1/Editor/UI/ObjectBreakdowns/FeatureUnavailable/FeatureUnavailableViewController.cs"
"Library/PackageCache/com.unity.memoryprofiler@0.7.1-preview.1/Editor/UI/ObjectBreakdowns/ObjectBreakdownsModel.cs"
"Library/PackageCache/com.unity.memoryprofiler@0.7.1-preview.1/Editor/UI/ObjectBreakdowns/ObjectBreakdownsViewController.cs"
"Library/PackageCache/com.unity.memoryprofiler@0.7.1-preview.1/Editor/UI/OpenSnapshotsManager.cs"
"Library/PackageCache/com.unity.memoryprofiler@0.7.1-preview.1/Editor/UI/PathsToRoot/DetailFormatter.cs"
"Library/PackageCache/com.unity.memoryprofiler@0.7.1-preview.1/Editor/UI/PathsToRoot/ManagedObjectInspector.cs"
"Library/PackageCache/com.unity.memoryprofiler@0.7.1-preview.1/Editor/UI/PathsToRoot/ManagedObjectInspectorItem.cs"
"Library/PackageCache/com.unity.memoryprofiler@0.7.1-preview.1/Editor/UI/PathsToRoot/MultiColumnHeaderWithTruncateTypeName.cs"
"Library/PackageCache/com.unity.memoryprofiler@0.7.1-preview.1/Editor/UI/PathsToRoot/PathsToRootDetailView.cs"
"Library/PackageCache/com.unity.memoryprofiler@0.7.1-preview.1/Editor/UI/PathsToRoot/PathsToRootDetailViewItem.cs"
"Library/PackageCache/com.unity.memoryprofiler@0.7.1-preview.1/Editor/UI/PathsToRoot/PathsToRootUtil.cs"
"Library/PackageCache/com.unity.memoryprofiler@0.7.1-preview.1/Editor/UI/PathsToRoot/SelectedItemDetailsForTypesAndObjects.cs"
"Library/PackageCache/com.unity.memoryprofiler@0.7.1-preview.1/Editor/UI/PathsToRoot/SelectedItemDetailsPanel.cs"
"Library/PackageCache/com.unity.memoryprofiler@0.7.1-preview.1/Editor/UI/PathsToRoot/SelectionDetailsFactory.cs"
"Library/PackageCache/com.unity.memoryprofiler@0.7.1-preview.1/Editor/UI/PathsToRoot/UnifiedUnityObjectInfo.cs"
"Library/PackageCache/com.unity.memoryprofiler@0.7.1-preview.1/Editor/UI/ProfilerColors.cs"
"Library/PackageCache/com.unity.memoryprofiler@0.7.1-preview.1/Editor/UI/ProgressBar/ProgressBar.cs"
"Library/PackageCache/com.unity.memoryprofiler@0.7.1-preview.1/Editor/UI/SplitterStateEx.cs"
"Library/PackageCache/com.unity.memoryprofiler@0.7.1-preview.1/Editor/UI/SpreadsheetLogic.cs"
"Library/PackageCache/com.unity.memoryprofiler@0.7.1-preview.1/Editor/UI/SpreadsheetPane.cs"
"Library/PackageCache/com.unity.memoryprofiler@0.7.1-preview.1/Editor/UI/Styles.cs"
"Library/PackageCache/com.unity.memoryprofiler@0.7.1-preview.1/Editor/UI/TextSpreadsheet.cs"
"Library/PackageCache/com.unity.memoryprofiler@0.7.1-preview.1/Editor/UI/Treemap/Group.cs"
"Library/PackageCache/com.unity.memoryprofiler@0.7.1-preview.1/Editor/UI/Treemap/Item.cs"
"Library/PackageCache/com.unity.memoryprofiler@0.7.1-preview.1/Editor/UI/Treemap/TreeMapView.cs"
"Library/PackageCache/com.unity.memoryprofiler@0.7.1-preview.1/Editor/UI/Treemap/Utility.cs"
"Library/PackageCache/com.unity.memoryprofiler@0.7.1-preview.1/Editor/UI/TreeMapPane.cs"
"Library/PackageCache/com.unity.memoryprofiler@0.7.1-preview.1/Editor/UI/UIElements/BackgroundPattern.cs"
"Library/PackageCache/com.unity.memoryprofiler@0.7.1-preview.1/Editor/UI/UIElements/DropDownButton.cs"
"Library/PackageCache/com.unity.memoryprofiler@0.7.1-preview.1/Editor/UI/UIElements/InfoBox.cs"
"Library/PackageCache/com.unity.memoryprofiler@0.7.1-preview.1/Editor/UI/UIElements/ObjectOrTypeLabel.cs"
"Library/PackageCache/com.unity.memoryprofiler@0.7.1-preview.1/Editor/UI/UIElements/Ribbon.cs"
"Library/PackageCache/com.unity.memoryprofiler@0.7.1-preview.1/Editor/UI/UIElements/RibbonButton.cs"
"Library/PackageCache/com.unity.memoryprofiler@0.7.1-preview.1/Editor/UI/UIElements/ToolbarDropDownButton.cs"
"Library/PackageCache/com.unity.memoryprofiler@0.7.1-preview.1/Editor/UI/UIElements/TwoPaneSplitView.cs"
"Library/PackageCache/com.unity.memoryprofiler@0.7.1-preview.1/Editor/UI/UIElements/TwoPaneSplitViewResizer.cs"
"Library/PackageCache/com.unity.memoryprofiler@0.7.1-preview.1/Editor/UI/UIState.cs"
"Library/PackageCache/com.unity.memoryprofiler@0.7.1-preview.1/Editor/UI/Utilities/EditorGUICompatibilityHelper.cs"
"Library/PackageCache/com.unity.memoryprofiler@0.7.1-preview.1/Editor/UI/Utilities/EditorUtilityCompatibilityHelper.cs"
"Library/PackageCache/com.unity.memoryprofiler@0.7.1-preview.1/Editor/UI/Utilities/IconUtility.cs"
"Library/PackageCache/com.unity.memoryprofiler@0.7.1-preview.1/Editor/UI/Utilities/PlayerConnectionCompatibilityHelper.cs"
"Library/PackageCache/com.unity.memoryprofiler@0.7.1-preview.1/Editor/UI/Utilities/UIElementsHelper.cs"
"Library/PackageCache/com.unity.memoryprofiler@0.7.1-preview.1/Editor/UI/ViewControllerSystem/ViewController.cs"
"Library/PackageCache/com.unity.memoryprofiler@0.7.1-preview.1/Editor/UI/ViewControllerSystem/ViewControllerUtility.cs"
"Library/PackageCache/com.unity.memoryprofiler@0.7.1-preview.1/Editor/UI/ViewPane.cs"
"Library/PackageCache/com.unity.memoryprofiler@0.7.1-preview.1/Editor/UI/Workbench/CaptureControlUI.cs"
"Library/PackageCache/com.unity.memoryprofiler@0.7.1-preview.1/Editor/UI/Workbench/MemoryUsageDial.cs"
"Library/PackageCache/com.unity.memoryprofiler@0.7.1-preview.1/Editor/UI/Workbench/OpenSnapshotsWindow.cs"
"Library/PackageCache/com.unity.memoryprofiler@0.7.1-preview.1/Editor/UI/Workbench/SnapshotCollection.cs"
"Library/PackageCache/com.unity.memoryprofiler@0.7.1-preview.1/Editor/UI/Workbench/SnapshotFileData.cs"
"Library/PackageCache/com.unity.memoryprofiler@0.7.1-preview.1/Editor/UI/Workbench/SnapshotListItem.cs"
"Library/PackageCache/com.unity.memoryprofiler@0.7.1-preview.1/Editor/UI/Workbench/SnapshotsWindow.cs"
"Library/PackageCache/com.unity.memoryprofiler@0.7.1-preview.1/Editor/UI/Workbench/WorkbenchSplitter.cs"
"Library/PackageCache/com.unity.memoryprofiler@0.7.1-preview.1/Editor/UI/ZoomArea.cs"
"Library/PackageCache/com.unity.memoryprofiler@0.7.1-preview.1/Editor/Utilities/EditorAssetFinderUtility.cs"
"Library/PackageCache/com.unity.memoryprofiler@0.7.1-preview.1/Editor/Utilities/EnumerationStatus.cs"
"Library/PackageCache/com.unity.memoryprofiler@0.7.1-preview.1/Editor/Utilities/EnumExtensions.cs"
"Library/PackageCache/com.unity.memoryprofiler@0.7.1-preview.1/Editor/Utilities/NativeArrayAlgorithms.cs"
"Library/PackageCache/com.unity.memoryprofiler@0.7.1-preview.1/Editor/Utilities/PlatformsHelper.cs"
"Library/PackageCache/com.unity.memoryprofiler@0.7.1-preview.1/Editor/Utilities/Range.cs"
"Library/PackageCache/com.unity.memoryprofiler@0.7.1-preview.1/Editor/Utilities/StringExtensions.cs"
-langversion:9.0
/unsafe+
/deterministic
/optimize+
/debug:portable
/nologo
/RuntimeMetadataVersion:v4.0.30319

/nowarn:0169
/nowarn:0649
/nowarn:1701
/nowarn:1702
/utf8output
/preferreduilang:en-US
-warn:0

/additionalfile:"Library/Bee/artifacts/1300b0aE.dag/Unity.MemoryProfiler.Editor.AdditionalFile.txt"