%YAML 1.1
%TAG !u! tag:unity3d.com,2011:
--- !u!114 &11400000
MonoBehaviour:
  m_ObjectHideFlags: 0
  m_CorrespondingSourceObject: {fileID: 0}
  m_PrefabInstance: {fileID: 0}
  m_PrefabAsset: {fileID: 0}
  m_GameObject: {fileID: 0}
  m_Enabled: 1
  m_EditorHideFlags: 0
  m_Script: {fileID: 11500000, guid: 9ca56160e1d8ea440822b16eb3223cc0, type: 3}
  m_Name: LevelDataBase
  m_EditorClassIdentifier: 
  levelDataLists:
  - goalNumber: 1
    cheeseNumber: 3
    cheeseToUnlock: 0
  - goalNumber: 1
    cheeseNumber: 3
    cheeseToUnlock: 0
  - goalNumber: 1
    cheeseNumber: 3
    cheeseToUnlock: 0
  - goalNumber: 1
    cheeseNumber: 3
    cheeseToUnlock: 9
  - goalNumber: 1
    cheeseNumber: 3
    cheeseToUnlock: 12
  - goalNumber: 1
    cheeseNumber: 3
    cheeseToUnlock: 15
  - goalNumber: 1
    cheeseNumber: 3
    cheeseToUnlock: 18
  - goalNumber: 1
    cheeseNumber: 3
    cheeseToUnlock: 21
  - goalNumber: 1
    cheeseNumber: 3
    cheeseToUnlock: 24
  - goalNumber: 1
    cheeseNumber: 3
    cheeseToUnlock: 27
  - goalNumber: 1
    cheeseNumber: 3
    cheeseToUnlock: 30
  - goalNumber: 1
    cheeseNumber: 3
    cheeseToUnlock: 33
  - goalNumber: 1
    cheeseNumber: 3
    cheeseToUnlock: 36
  - goalNumber: 1
    cheeseNumber: 3
    cheeseToUnlock: 39
  - goalNumber: 1
    cheeseNumber: 3
    cheeseToUnlock: 42
  - goalNumber: 1
    cheeseNumber: 3
    cheeseToUnlock: 45
  - goalNumber: 1
    cheeseNumber: 3
    cheeseToUnlock: 48
  - goalNumber: 1
    cheeseNumber: 3
    cheeseToUnlock: 51
  - goalNumber: 1
    cheeseNumber: 3
    cheeseToUnlock: 54
  - goalNumber: 1
    cheeseNumber: 3
    cheeseToUnlock: 57
  - goalNumber: 1
    cheeseNumber: 3
    cheeseToUnlock: 60
  - goalNumber: 1
    cheeseNumber: 3
    cheeseToUnlock: 63
  - goalNumber: 1
    cheeseNumber: 3
    cheeseToUnlock: 66
  - goalNumber: 1
    cheeseNumber: 3
    cheeseToUnlock: 69
  - goalNumber: 1
    cheeseNumber: 3
    cheeseToUnlock: 72
  - goalNumber: 1
    cheeseNumber: 3
    cheeseToUnlock: 75
  - goalNumber: 1
    cheeseNumber: 3
    cheeseToUnlock: 78
  - goalNumber: 1
    cheeseNumber: 3
    cheeseToUnlock: 81
  - goalNumber: 1
    cheeseNumber: 3
    cheeseToUnlock: 84
  - goalNumber: 1
    cheeseNumber: 3
    cheeseToUnlock: 87
