[api-updater (non-obsolete-error-filter)] 1/28/2023 10:55:48 AM : Starting E:/Work/Unity/editors/2020.3.41f1/Editor/Data/Tools/ScriptUpdater/APIUpdater.NonObsoleteApiUpdaterDetector.exe
[api-updater (non-obsolete-error-filter)] 
----------------------------------
jit/startup time      : 181.0128ms
moved types parse time: 73ms
candidates parse time : 1ms
C# parse time         : 419ms
candidates check time : 71ms
console write time    : 0ms

[api-updater (non-obsolete-error-filter)] 1/30/2023 11:11:52 AM : Starting E:/Work/Unity/editors/2020.3.41f1/Editor/Data/Tools/ScriptUpdater/APIUpdater.NonObsoleteApiUpdaterDetector.exe
[api-updater (non-obsolete-error-filter)] 
----------------------------------
jit/startup time      : 203.2196ms
moved types parse time: 81ms
candidates parse time : 1ms
C# parse time         : 307ms
candidates check time : 40ms
console write time    : 1ms

[api-updater (non-obsolete-error-filter)] 1/30/2023 11:12:09 AM : Starting E:/Work/Unity/editors/2020.3.41f1/Editor/Data/Tools/ScriptUpdater/APIUpdater.NonObsoleteApiUpdaterDetector.exe
[api-updater (non-obsolete-error-filter)] 
----------------------------------
jit/startup time      : 68.8495ms
moved types parse time: 79ms
candidates parse time : 1ms
C# parse time         : 271ms
candidates check time : 54ms
console write time    : 1ms

[api-updater (non-obsolete-error-filter)] 1/30/2023 11:49:44 AM : Starting E:/Work/Unity/editors/2020.3.41f1/Editor/Data/Tools/ScriptUpdater/APIUpdater.NonObsoleteApiUpdaterDetector.exe
[api-updater (non-obsolete-error-filter)] 
----------------------------------
jit/startup time      : 78.314ms
moved types parse time: 64ms
candidates parse time : 1ms
C# parse time         : 275ms
candidates check time : 75ms
console write time    : 0ms

[api-updater (non-obsolete-error-filter)] 1/30/2023 2:59:43 PM : Starting E:/Work/Unity/editors/2020.3.41f1/Editor/Data/Tools/ScriptUpdater/APIUpdater.NonObsoleteApiUpdaterDetector.exe
[api-updater (non-obsolete-error-filter)] 
----------------------------------
jit/startup time      : 116.01ms
moved types parse time: 63ms
candidates parse time : 1ms
C# parse time         : 243ms
candidates check time : 60ms
console write time    : 0ms

[api-updater (non-obsolete-error-filter)] 1/31/2023 9:12:38 AM : Starting E:/Work/Unity/editors/2020.3.41f1/Editor/Data/Tools/ScriptUpdater/APIUpdater.NonObsoleteApiUpdaterDetector.exe
[api-updater (non-obsolete-error-filter)] 
----------------------------------
jit/startup time      : 147.0114ms
moved types parse time: 68ms
candidates parse time : 1ms
C# parse time         : 270ms
candidates check time : 89ms
console write time    : 0ms

[api-updater (non-obsolete-error-filter)] 1/31/2023 9:12:54 AM : Starting E:/Work/Unity/editors/2020.3.41f1/Editor/Data/Tools/ScriptUpdater/APIUpdater.NonObsoleteApiUpdaterDetector.exe
[api-updater (non-obsolete-error-filter)] 
----------------------------------
jit/startup time      : 68.0054ms
moved types parse time: 74ms
candidates parse time : 1ms
C# parse time         : 296ms
candidates check time : 77ms
console write time    : 1ms

[api-updater (non-obsolete-error-filter)] 1/31/2023 9:12:58 AM : Starting E:/Work/Unity/editors/2020.3.41f1/Editor/Data/Tools/ScriptUpdater/APIUpdater.NonObsoleteApiUpdaterDetector.exe
[api-updater (non-obsolete-error-filter)] 
----------------------------------
jit/startup time      : 77.0052ms
moved types parse time: 70ms
candidates parse time : 2ms
C# parse time         : 270ms
candidates check time : 69ms
console write time    : 0ms

[api-updater (non-obsolete-error-filter)] 1/31/2023 9:13:38 AM : Starting E:/Work/Unity/editors/2020.3.41f1/Editor/Data/Tools/ScriptUpdater/APIUpdater.NonObsoleteApiUpdaterDetector.exe
[api-updater (non-obsolete-error-filter)] 
----------------------------------
jit/startup time      : 84.0066ms
moved types parse time: 83ms
candidates parse time : 2ms
C# parse time         : 292ms
candidates check time : 80ms
console write time    : 0ms

[api-updater (non-obsolete-error-filter)] 1/31/2023 9:36:22 AM : Starting E:/Work/Unity/editors/2020.3.41f1/Editor/Data/Tools/ScriptUpdater/APIUpdater.NonObsoleteApiUpdaterDetector.exe
[api-updater (non-obsolete-error-filter)] 
----------------------------------
jit/startup time      : 67.829ms
moved types parse time: 75ms
candidates parse time : 2ms
C# parse time         : 283ms
candidates check time : 72ms
console write time    : 0ms

[api-updater (non-obsolete-error-filter)] 1/31/2023 9:36:40 AM : Starting E:/Work/Unity/editors/2020.3.41f1/Editor/Data/Tools/ScriptUpdater/APIUpdater.NonObsoleteApiUpdaterDetector.exe
[api-updater (non-obsolete-error-filter)] 
----------------------------------
jit/startup time      : 72.5114ms
moved types parse time: 75ms
candidates parse time : 1ms
C# parse time         : 265ms
candidates check time : 72ms
console write time    : 0ms

[api-updater (non-obsolete-error-filter)] 1/31/2023 3:05:34 PM : Starting E:/Work/Unity/editors/2020.3.41f1/Editor/Data/Tools/ScriptUpdater/APIUpdater.NonObsoleteApiUpdaterDetector.exe
[api-updater (non-obsolete-error-filter)] 
----------------------------------
jit/startup time      : 86.6395ms
moved types parse time: 71ms
candidates parse time : 1ms
C# parse time         : 302ms
candidates check time : 56ms
console write time    : 0ms

[api-updater (non-obsolete-error-filter)] 2/1/2023 9:52:44 AM : Starting E:/Work/Unity/editors/2020.3.41f1/Editor/Data/Tools/ScriptUpdater/APIUpdater.NonObsoleteApiUpdaterDetector.exe
[api-updater (non-obsolete-error-filter)] 
----------------------------------
jit/startup time      : 131.0042ms
moved types parse time: 66ms
candidates parse time : 1ms
C# parse time         : 271ms
candidates check time : 80ms
console write time    : 0ms

[api-updater (non-obsolete-error-filter)] 2/1/2023 9:53:02 AM : Starting E:/Work/Unity/editors/2020.3.41f1/Editor/Data/Tools/ScriptUpdater/APIUpdater.NonObsoleteApiUpdaterDetector.exe
[api-updater (non-obsolete-error-filter)] 
----------------------------------
jit/startup time      : 62.0056ms
moved types parse time: 66ms
candidates parse time : 1ms
C# parse time         : 258ms
candidates check time : 66ms
console write time    : 0ms

[api-updater (non-obsolete-error-filter)] 2/1/2023 9:57:02 AM : Starting E:/Work/Unity/editors/2020.3.41f1/Editor/Data/Tools/ScriptUpdater/APIUpdater.NonObsoleteApiUpdaterDetector.exe
[api-updater (non-obsolete-error-filter)] 
----------------------------------
jit/startup time      : 62.0047ms
moved types parse time: 62ms
candidates parse time : 1ms
C# parse time         : 245ms
candidates check time : 70ms
console write time    : 0ms

[api-updater (non-obsolete-error-filter)] 2/1/2023 9:57:24 AM : Starting E:/Work/Unity/editors/2020.3.41f1/Editor/Data/Tools/ScriptUpdater/APIUpdater.NonObsoleteApiUpdaterDetector.exe
[api-updater (non-obsolete-error-filter)] 
----------------------------------
jit/startup time      : 68.0057ms
moved types parse time: 64ms
candidates parse time : 1ms
C# parse time         : 285ms
candidates check time : 76ms
console write time    : 0ms

[api-updater (non-obsolete-error-filter)] 2/1/2023 9:57:31 AM : Starting E:/Work/Unity/editors/2020.3.41f1/Editor/Data/Tools/ScriptUpdater/APIUpdater.NonObsoleteApiUpdaterDetector.exe
[api-updater (non-obsolete-error-filter)] 
----------------------------------
jit/startup time      : 65.0034ms
moved types parse time: 64ms
candidates parse time : 1ms
C# parse time         : 240ms
candidates check time : 70ms
console write time    : 0ms

[api-updater (non-obsolete-error-filter)] 2/1/2023 9:57:52 AM : Starting E:/Work/Unity/editors/2020.3.41f1/Editor/Data/Tools/ScriptUpdater/APIUpdater.NonObsoleteApiUpdaterDetector.exe
[api-updater (non-obsolete-error-filter)] 
----------------------------------
jit/startup time      : 62.0052ms
moved types parse time: 66ms
candidates parse time : 1ms
C# parse time         : 250ms
candidates check time : 67ms
console write time    : 0ms

[api-updater (non-obsolete-error-filter)] 2/1/2023 9:58:11 AM : Starting E:/Work/Unity/editors/2020.3.41f1/Editor/Data/Tools/ScriptUpdater/APIUpdater.NonObsoleteApiUpdaterDetector.exe
[api-updater (non-obsolete-error-filter)] 
----------------------------------
jit/startup time      : 71.0056ms
moved types parse time: 68ms
candidates parse time : 1ms
C# parse time         : 274ms
candidates check time : 96ms
console write time    : 0ms

[api-updater (non-obsolete-error-filter)] 2/1/2023 10:19:08 AM : Starting E:/Work/Unity/editors/2020.3.41f1/Editor/Data/Tools/ScriptUpdater/APIUpdater.NonObsoleteApiUpdaterDetector.exe
[api-updater (non-obsolete-error-filter)] 
----------------------------------
jit/startup time      : 66.0043ms
moved types parse time: 72ms
candidates parse time : 1ms
C# parse time         : 276ms
candidates check time : 228ms
console write time    : 0ms

[api-updater (non-obsolete-error-filter)] 2/1/2023 10:23:24 AM : Starting E:/Work/Unity/editors/2020.3.41f1/Editor/Data/Tools/ScriptUpdater/APIUpdater.NonObsoleteApiUpdaterDetector.exe
[api-updater (non-obsolete-error-filter)] 
----------------------------------
jit/startup time      : 67.0048ms
moved types parse time: 73ms
candidates parse time : 1ms
C# parse time         : 265ms
candidates check time : 65ms
console write time    : 0ms

[api-updater (non-obsolete-error-filter)] 2/1/2023 10:23:41 AM : Starting E:/Work/Unity/editors/2020.3.41f1/Editor/Data/Tools/ScriptUpdater/APIUpdater.NonObsoleteApiUpdaterDetector.exe
[api-updater (non-obsolete-error-filter)] 
----------------------------------
jit/startup time      : 68.0043ms
moved types parse time: 71ms
candidates parse time : 1ms
C# parse time         : 282ms
candidates check time : 67ms
console write time    : 0ms

[api-updater (non-obsolete-error-filter)] 2/1/2023 10:26:01 AM : Starting E:/Work/Unity/editors/2020.3.41f1/Editor/Data/Tools/ScriptUpdater/APIUpdater.NonObsoleteApiUpdaterDetector.exe
[api-updater (non-obsolete-error-filter)] 
----------------------------------
jit/startup time      : 88.0827ms
moved types parse time: 87ms
candidates parse time : 2ms
C# parse time         : 304ms
candidates check time : 53ms
console write time    : 0ms

[api-updater (non-obsolete-error-filter)] 2/1/2023 10:26:08 AM : Starting E:/Work/Unity/editors/2020.3.41f1/Editor/Data/Tools/ScriptUpdater/APIUpdater.NonObsoleteApiUpdaterDetector.exe
[api-updater (non-obsolete-error-filter)] 
----------------------------------
jit/startup time      : 93.2069ms
moved types parse time: 80ms
candidates parse time : 1ms
C# parse time         : 313ms
candidates check time : 59ms
console write time    : 1ms

[api-updater (non-obsolete-error-filter)] 2/6/2023 4:21:00 PM : Starting E:/Work/Unity/editors/2020.3.41f1/Editor/Data/Tools/ScriptUpdater/APIUpdater.NonObsoleteApiUpdaterDetector.exe
[api-updater (non-obsolete-error-filter)] 
----------------------------------
jit/startup time      : 267.0212ms
moved types parse time: 134ms
candidates parse time : 2ms
C# parse time         : 540ms
candidates check time : 116ms
console write time    : 2ms

[api-updater (non-obsolete-error-filter)] 2/13/2023 8:45:14 AM : Starting E:/Work/Unity/editors/2020.3.41f1/Editor/Data/Tools/ScriptUpdater/APIUpdater.NonObsoleteApiUpdaterDetector.exe
[api-updater (non-obsolete-error-filter)] 
----------------------------------
jit/startup time      : 206.2804ms
moved types parse time: 77ms
candidates parse time : 1ms
C# parse time         : 274ms
candidates check time : 50ms
console write time    : 0ms

[api-updater (non-obsolete-error-filter)] 2/13/2023 10:25:47 AM : Starting E:/Work/Unity/editors/2020.3.41f1/Editor/Data/Tools/ScriptUpdater/APIUpdater.NonObsoleteApiUpdaterDetector.exe
[api-updater (non-obsolete-error-filter)] 
----------------------------------
jit/startup time      : 65.0044ms
moved types parse time: 63ms
candidates parse time : 1ms
C# parse time         : 243ms
candidates check time : 55ms
console write time    : 0ms

[api-updater (non-obsolete-error-filter)] 2/13/2023 10:25:56 AM : Starting E:/Work/Unity/editors/2020.3.41f1/Editor/Data/Tools/ScriptUpdater/APIUpdater.NonObsoleteApiUpdaterDetector.exe
[api-updater (non-obsolete-error-filter)] 
----------------------------------
jit/startup time      : 63.0041ms
moved types parse time: 68ms
candidates parse time : 2ms
C# parse time         : 236ms
candidates check time : 53ms
console write time    : 0ms

[api-updater (non-obsolete-error-filter)] 2/13/2023 10:26:04 AM : Starting E:/Work/Unity/editors/2020.3.41f1/Editor/Data/Tools/ScriptUpdater/APIUpdater.NonObsoleteApiUpdaterDetector.exe
[api-updater (non-obsolete-error-filter)] 
----------------------------------
jit/startup time      : 72.0049ms
moved types parse time: 67ms
candidates parse time : 1ms
C# parse time         : 229ms
candidates check time : 54ms
console write time    : 0ms

[api-updater (non-obsolete-error-filter)] 2/13/2023 3:21:53 PM : Starting E:/Work/Unity/editors/2020.3.41f1/Editor/Data/Tools/ScriptUpdater/APIUpdater.NonObsoleteApiUpdaterDetector.exe
[api-updater (non-obsolete-error-filter)] 
----------------------------------
jit/startup time      : 76.0036ms
moved types parse time: 73ms
candidates parse time : 3ms
C# parse time         : 260ms
candidates check time : 56ms
console write time    : 0ms

[api-updater (non-obsolete-error-filter)] 2/14/2023 8:40:49 AM : Starting E:/Work/Unity/editors/2020.3.41f1/Editor/Data/Tools/ScriptUpdater/APIUpdater.NonObsoleteApiUpdaterDetector.exe
[api-updater (non-obsolete-error-filter)] 
----------------------------------
jit/startup time      : 184.0103ms
moved types parse time: 80ms
candidates parse time : 1ms
C# parse time         : 356ms
candidates check time : 219ms
console write time    : 1ms

[api-updater (non-obsolete-error-filter)] 2/14/2023 8:54:27 AM : Starting E:/Work/Unity/editors/2020.3.41f1/Editor/Data/Tools/ScriptUpdater/APIUpdater.NonObsoleteApiUpdaterDetector.exe
[api-updater (non-obsolete-error-filter)] 
----------------------------------
jit/startup time      : 84.2159ms
moved types parse time: 79ms
candidates parse time : 1ms
C# parse time         : 345ms
candidates check time : 119ms
console write time    : 0ms

[api-updater (non-obsolete-error-filter)] 2/14/2023 8:58:02 AM : Starting E:/Work/Unity/editors/2020.3.41f1/Editor/Data/Tools/ScriptUpdater/APIUpdater.NonObsoleteApiUpdaterDetector.exe
[api-updater (non-obsolete-error-filter)] 
----------------------------------
jit/startup time      : 84.6155ms
moved types parse time: 71ms
candidates parse time : 1ms
C# parse time         : 392ms
candidates check time : 111ms
console write time    : 0ms

[api-updater (non-obsolete-error-filter)] 2/14/2023 9:07:22 AM : Starting E:/Work/Unity/editors/2020.3.41f1/Editor/Data/Tools/ScriptUpdater/APIUpdater.NonObsoleteApiUpdaterDetector.exe
[api-updater (non-obsolete-error-filter)] 
----------------------------------
jit/startup time      : 116.2707ms
moved types parse time: 108ms
candidates parse time : 2ms
C# parse time         : 582ms
candidates check time : 140ms
console write time    : 1ms

[api-updater (non-obsolete-error-filter)] 2/14/2023 9:07:28 AM : Starting E:/Work/Unity/editors/2020.3.41f1/Editor/Data/Tools/ScriptUpdater/APIUpdater.NonObsoleteApiUpdaterDetector.exe
[api-updater (non-obsolete-error-filter)] 
----------------------------------
jit/startup time      : 130.8102ms
moved types parse time: 120ms
candidates parse time : 2ms
C# parse time         : 493ms
candidates check time : 145ms
console write time    : 1ms

[api-updater (non-obsolete-error-filter)] 2/14/2023 9:08:12 AM : Starting E:/Work/Unity/editors/2020.3.41f1/Editor/Data/Tools/ScriptUpdater/APIUpdater.NonObsoleteApiUpdaterDetector.exe
[api-updater (non-obsolete-error-filter)] 
----------------------------------
jit/startup time      : 100.8483ms
moved types parse time: 88ms
candidates parse time : 2ms
C# parse time         : 492ms
candidates check time : 106ms
console write time    : 0ms

[api-updater (non-obsolete-error-filter)] 2/14/2023 4:30:32 PM : Starting E:/Work/Unity/editors/2020.3.41f1/Editor/Data/Tools/ScriptUpdater/APIUpdater.NonObsoleteApiUpdaterDetector.exe
[api-updater (non-obsolete-error-filter)] 
----------------------------------
jit/startup time      : 212.0195ms
moved types parse time: 106ms
candidates parse time : 1ms
C# parse time         : 375ms
candidates check time : 71ms
console write time    : 1ms

[api-updater (non-obsolete-error-filter)] 2/15/2023 10:08:17 AM : Starting E:/Work/Unity/editors/2020.3.41f1/Editor/Data/Tools/ScriptUpdater/APIUpdater.NonObsoleteApiUpdaterDetector.exe
[api-updater (non-obsolete-error-filter)] 
----------------------------------
jit/startup time      : 184.0159ms
moved types parse time: 75ms
candidates parse time : 1ms
C# parse time         : 283ms
candidates check time : 70ms
console write time    : 1ms

[api-updater (non-obsolete-error-filter)] 2/15/2023 10:58:20 AM : Starting E:/Work/Unity/editors/2020.3.41f1/Editor/Data/Tools/ScriptUpdater/APIUpdater.NonObsoleteApiUpdaterDetector.exe
[api-updater (non-obsolete-error-filter)] 
----------------------------------
jit/startup time      : 111.1381ms
moved types parse time: 74ms
candidates parse time : 1ms
C# parse time         : 343ms
candidates check time : 87ms
console write time    : 0ms

[api-updater (non-obsolete-error-filter)] 2/15/2023 11:02:51 AM : Starting E:/Work/Unity/editors/2020.3.41f1/Editor/Data/Tools/ScriptUpdater/APIUpdater.NonObsoleteApiUpdaterDetector.exe
[api-updater (non-obsolete-error-filter)] 
----------------------------------
jit/startup time      : 84.0035ms
moved types parse time: 64ms
candidates parse time : 1ms
C# parse time         : 324ms
candidates check time : 114ms
console write time    : 0ms

[api-updater (non-obsolete-error-filter)] 2/15/2023 11:15:15 AM : Starting E:/Work/Unity/editors/2020.3.41f1/Editor/Data/Tools/ScriptUpdater/APIUpdater.NonObsoleteApiUpdaterDetector.exe
[api-updater (non-obsolete-error-filter)] 
----------------------------------
jit/startup time      : 106.0717ms
moved types parse time: 77ms
candidates parse time : 1ms
C# parse time         : 313ms
candidates check time : 132ms
console write time    : 0ms

[api-updater (non-obsolete-error-filter)] 2/20/2023 3:30:38 PM : Starting E:/Work/Unity/editors/2020.3.41f1/Editor/Data/Tools/ScriptUpdater/APIUpdater.NonObsoleteApiUpdaterDetector.exe
[api-updater (non-obsolete-error-filter)] 
----------------------------------
jit/startup time      : 195.0006ms
moved types parse time: 93ms
candidates parse time : 1ms
C# parse time         : 496ms
candidates check time : 72ms
console write time    : 1ms

[api-updater (non-obsolete-error-filter)] 2/20/2023 5:01:50 PM : Starting E:/Work/Unity/editors/2020.3.41f1/Editor/Data/Tools/ScriptUpdater/APIUpdater.NonObsoleteApiUpdaterDetector.exe
[api-updater (non-obsolete-error-filter)] 
----------------------------------
jit/startup time      : 71.3461ms
moved types parse time: 68ms
candidates parse time : 1ms
C# parse time         : 283ms
candidates check time : 70ms
console write time    : 0ms

[api-updater (non-obsolete-error-filter)] 2/20/2023 5:01:54 PM : Starting E:/Work/Unity/editors/2020.3.41f1/Editor/Data/Tools/ScriptUpdater/APIUpdater.NonObsoleteApiUpdaterDetector.exe
[api-updater (non-obsolete-error-filter)] 
----------------------------------
jit/startup time      : 65.857ms
moved types parse time: 71ms
candidates parse time : 1ms
C# parse time         : 349ms
candidates check time : 62ms
console write time    : 0ms

[api-updater (non-obsolete-error-filter)] 2/22/2023 9:43:03 AM : Starting E:/Work/Unity/editors/2020.3.41f1/Editor/Data/Tools/ScriptUpdater/APIUpdater.NonObsoleteApiUpdaterDetector.exe
[api-updater (non-obsolete-error-filter)] 
----------------------------------
jit/startup time      : 221.9289ms
moved types parse time: 92ms
candidates parse time : 1ms
C# parse time         : 332ms
candidates check time : 73ms
console write time    : 1ms

[api-updater (non-obsolete-error-filter)] 2/22/2023 11:11:13 AM : Starting E:/Work/Unity/editors/2020.3.41f1/Editor/Data/Tools/ScriptUpdater/APIUpdater.NonObsoleteApiUpdaterDetector.exe
[api-updater (non-obsolete-error-filter)] 
----------------------------------
jit/startup time      : 79.5483ms
moved types parse time: 69ms
candidates parse time : 1ms
C# parse time         : 264ms
candidates check time : 56ms
console write time    : 0ms

[api-updater (non-obsolete-error-filter)] 2/24/2023 12:20:24 PM : Starting E:/Work/Unity/editors/2020.3.41f1/Editor/Data/Tools/ScriptUpdater/APIUpdater.NonObsoleteApiUpdaterDetector.exe
[api-updater (non-obsolete-error-filter)] 
----------------------------------
jit/startup time      : 257.166ms
moved types parse time: 114ms
candidates parse time : 1ms
C# parse time         : 562ms
candidates check time : 116ms
console write time    : 1ms

[api-updater (non-obsolete-error-filter)] 2/24/2023 1:22:48 PM : Starting E:/Work/Unity/editors/2020.3.41f1/Editor/Data/Tools/ScriptUpdater/APIUpdater.NonObsoleteApiUpdaterDetector.exe
[api-updater (non-obsolete-error-filter)] 
----------------------------------
jit/startup time      : 147.1643ms
moved types parse time: 153ms
candidates parse time : 2ms
C# parse time         : 756ms
candidates check time : 131ms
console write time    : 1ms

[api-updater (non-obsolete-error-filter)] 2/24/2023 2:02:52 PM : Starting E:/Work/Unity/editors/2020.3.41f1/Editor/Data/Tools/ScriptUpdater/APIUpdater.NonObsoleteApiUpdaterDetector.exe
[api-updater (non-obsolete-error-filter)] 
----------------------------------
jit/startup time      : 76.0046ms
moved types parse time: 81ms
candidates parse time : 1ms
C# parse time         : 276ms
candidates check time : 104ms
console write time    : 1ms

[api-updater (non-obsolete-error-filter)] 2/24/2023 2:03:31 PM : Starting E:/Work/Unity/editors/2020.3.41f1/Editor/Data/Tools/ScriptUpdater/APIUpdater.NonObsoleteApiUpdaterDetector.exe
[api-updater (non-obsolete-error-filter)] 
----------------------------------
jit/startup time      : 64.0056ms
moved types parse time: 101ms
candidates parse time : 1ms
C# parse time         : 306ms
candidates check time : 84ms
console write time    : 0ms

[api-updater (non-obsolete-error-filter)] 2/24/2023 2:03:51 PM : Starting E:/Work/Unity/editors/2020.3.41f1/Editor/Data/Tools/ScriptUpdater/APIUpdater.NonObsoleteApiUpdaterDetector.exe
[api-updater (non-obsolete-error-filter)] 
----------------------------------
jit/startup time      : 80.0058ms
moved types parse time: 70ms
candidates parse time : 1ms
C# parse time         : 297ms
candidates check time : 85ms
console write time    : 0ms

[api-updater (non-obsolete-error-filter)] 2/24/2023 2:04:20 PM : Starting E:/Work/Unity/editors/2020.3.41f1/Editor/Data/Tools/ScriptUpdater/APIUpdater.NonObsoleteApiUpdaterDetector.exe
[api-updater (non-obsolete-error-filter)] 
----------------------------------
jit/startup time      : 75.0019ms
moved types parse time: 67ms
candidates parse time : 1ms
C# parse time         : 333ms
candidates check time : 86ms
console write time    : 1ms

[api-updater (non-obsolete-error-filter)] 2/24/2023 2:04:43 PM : Starting E:/Work/Unity/editors/2020.3.41f1/Editor/Data/Tools/ScriptUpdater/APIUpdater.NonObsoleteApiUpdaterDetector.exe
[api-updater (non-obsolete-error-filter)] 
----------------------------------
jit/startup time      : 109.0089ms
moved types parse time: 109ms
candidates parse time : 1ms
C# parse time         : 338ms
candidates check time : 76ms
console write time    : 0ms

[api-updater (non-obsolete-error-filter)] 2/24/2023 2:04:55 PM : Starting E:/Work/Unity/editors/2020.3.41f1/Editor/Data/Tools/ScriptUpdater/APIUpdater.NonObsoleteApiUpdaterDetector.exe
[api-updater (non-obsolete-error-filter)] 
----------------------------------
jit/startup time      : 73.0041ms
moved types parse time: 90ms
candidates parse time : 1ms
C# parse time         : 347ms
candidates check time : 88ms
console write time    : 0ms

[api-updater (non-obsolete-error-filter)] 2/24/2023 4:44:54 PM : Starting E:/Work/Unity/editors/2020.3.41f1/Editor/Data/Tools/ScriptUpdater/APIUpdater.NonObsoleteApiUpdaterDetector.exe
[api-updater (non-obsolete-error-filter)] 
----------------------------------
jit/startup time      : 92.006ms
moved types parse time: 91ms
candidates parse time : 1ms
C# parse time         : 387ms
candidates check time : 149ms
console write time    : 0ms

[api-updater (non-obsolete-error-filter)] 2/24/2023 4:51:00 PM : Starting E:/Work/Unity/editors/2020.3.41f1/Editor/Data/Tools/ScriptUpdater/APIUpdater.NonObsoleteApiUpdaterDetector.exe
[api-updater (non-obsolete-error-filter)] 
----------------------------------
jit/startup time      : 87.0044ms
moved types parse time: 71ms
candidates parse time : 1ms
C# parse time         : 313ms
candidates check time : 116ms
console write time    : 1ms

[api-updater (non-obsolete-error-filter)] 2/24/2023 4:52:01 PM : Starting E:/Work/Unity/editors/2020.3.41f1/Editor/Data/Tools/ScriptUpdater/APIUpdater.NonObsoleteApiUpdaterDetector.exe
[api-updater (non-obsolete-error-filter)] 
----------------------------------
jit/startup time      : 77.0063ms
moved types parse time: 71ms
candidates parse time : 1ms
C# parse time         : 277ms
candidates check time : 129ms
console write time    : 0ms

[api-updater (non-obsolete-error-filter)] 2/24/2023 4:53:58 PM : Starting E:/Work/Unity/editors/2020.3.41f1/Editor/Data/Tools/ScriptUpdater/APIUpdater.NonObsoleteApiUpdaterDetector.exe
[api-updater (non-obsolete-error-filter)] 
----------------------------------
jit/startup time      : 73.0049ms
moved types parse time: 67ms
candidates parse time : 1ms
C# parse time         : 243ms
candidates check time : 50ms
console write time    : 0ms

[api-updater (non-obsolete-error-filter)] 2/24/2023 4:54:55 PM : Starting E:/Work/Unity/editors/2020.3.41f1/Editor/Data/Tools/ScriptUpdater/APIUpdater.NonObsoleteApiUpdaterDetector.exe
[api-updater (non-obsolete-error-filter)] 
----------------------------------
jit/startup time      : 92.0038ms
moved types parse time: 86ms
candidates parse time : 2ms
C# parse time         : 323ms
candidates check time : 90ms
console write time    : 1ms

[api-updater (non-obsolete-error-filter)] 2/24/2023 4:56:25 PM : Starting E:/Work/Unity/editors/2020.3.41f1/Editor/Data/Tools/ScriptUpdater/APIUpdater.NonObsoleteApiUpdaterDetector.exe
[api-updater (non-obsolete-error-filter)] 
----------------------------------
jit/startup time      : 72.0045ms
moved types parse time: 78ms
candidates parse time : 1ms
C# parse time         : 239ms
candidates check time : 46ms
console write time    : 0ms

[api-updater (non-obsolete-error-filter)] 2/24/2023 4:57:20 PM : Starting E:/Work/Unity/editors/2020.3.41f1/Editor/Data/Tools/ScriptUpdater/APIUpdater.NonObsoleteApiUpdaterDetector.exe
[api-updater (non-obsolete-error-filter)] 
----------------------------------
jit/startup time      : 91.0084ms
moved types parse time: 89ms
candidates parse time : 1ms
C# parse time         : 339ms
candidates check time : 64ms
console write time    : 1ms

[api-updater (non-obsolete-error-filter)] 2/27/2023 4:00:40 PM : Starting E:/Work/Unity/editors/2020.3.41f1/Editor/Data/Tools/ScriptUpdater/APIUpdater.NonObsoleteApiUpdaterDetector.exe
[api-updater (non-obsolete-error-filter)] 
----------------------------------
jit/startup time      : 213.0138ms
moved types parse time: 98ms
candidates parse time : 2ms
C# parse time         : 420ms
candidates check time : 227ms
console write time    : 1ms

[api-updater (non-obsolete-error-filter)] 2/27/2023 4:10:41 PM : Starting E:/Work/Unity/editors/2020.3.41f1/Editor/Data/Tools/ScriptUpdater/APIUpdater.NonObsoleteApiUpdaterDetector.exe
[api-updater (non-obsolete-error-filter)] 
----------------------------------
jit/startup time      : 70.0042ms
moved types parse time: 66ms
candidates parse time : 1ms
C# parse time         : 240ms
candidates check time : 131ms
console write time    : 0ms

[api-updater (non-obsolete-error-filter)] 2/27/2023 4:11:34 PM : Starting E:/Work/Unity/editors/2020.3.41f1/Editor/Data/Tools/ScriptUpdater/APIUpdater.NonObsoleteApiUpdaterDetector.exe
[api-updater (non-obsolete-error-filter)] 
----------------------------------
jit/startup time      : 85.0055ms
moved types parse time: 78ms
candidates parse time : 2ms
C# parse time         : 244ms
candidates check time : 120ms
console write time    : 0ms

[api-updater (non-obsolete-error-filter)] 2/27/2023 4:18:47 PM : Starting E:/Work/Unity/editors/2020.3.41f1/Editor/Data/Tools/ScriptUpdater/APIUpdater.NonObsoleteApiUpdaterDetector.exe
[api-updater (non-obsolete-error-filter)] 
----------------------------------
jit/startup time      : 78.007ms
moved types parse time: 78ms
candidates parse time : 1ms
C# parse time         : 279ms
candidates check time : 124ms
console write time    : 0ms

[api-updater (non-obsolete-error-filter)] 2/27/2023 4:19:37 PM : Starting E:/Work/Unity/editors/2020.3.41f1/Editor/Data/Tools/ScriptUpdater/APIUpdater.NonObsoleteApiUpdaterDetector.exe
[api-updater (non-obsolete-error-filter)] 
----------------------------------
jit/startup time      : 72.0053ms
moved types parse time: 66ms
candidates parse time : 1ms
C# parse time         : 280ms
candidates check time : 112ms
console write time    : 0ms

[api-updater (non-obsolete-error-filter)] 2/27/2023 4:21:55 PM : Starting E:/Work/Unity/editors/2020.3.41f1/Editor/Data/Tools/ScriptUpdater/APIUpdater.NonObsoleteApiUpdaterDetector.exe
[api-updater (non-obsolete-error-filter)] 
----------------------------------
jit/startup time      : 77.0041ms
moved types parse time: 63ms
candidates parse time : 1ms
C# parse time         : 249ms
candidates check time : 32ms
console write time    : 0ms

[api-updater (non-obsolete-error-filter)] 2/27/2023 4:23:07 PM : Starting E:/Work/Unity/editors/2020.3.41f1/Editor/Data/Tools/ScriptUpdater/APIUpdater.NonObsoleteApiUpdaterDetector.exe
[api-updater (non-obsolete-error-filter)] 
----------------------------------
jit/startup time      : 74.0059ms
moved types parse time: 66ms
candidates parse time : 1ms
C# parse time         : 240ms
candidates check time : 36ms
console write time    : 0ms

[api-updater (non-obsolete-error-filter)] 2/28/2023 1:55:44 PM : Starting E:/Work/Unity/editors/2020.3.41f1/Editor/Data/Tools/ScriptUpdater/APIUpdater.NonObsoleteApiUpdaterDetector.exe
[api-updater (non-obsolete-error-filter)] 
----------------------------------
jit/startup time      : 243.0201ms
moved types parse time: 141ms
candidates parse time : 3ms
C# parse time         : 498ms
candidates check time : 126ms
console write time    : 2ms

[api-updater (non-obsolete-error-filter)] 2/28/2023 1:56:03 PM : Starting E:/Work/Unity/editors/2020.3.41f1/Editor/Data/Tools/ScriptUpdater/APIUpdater.NonObsoleteApiUpdaterDetector.exe
[api-updater (non-obsolete-error-filter)] 
----------------------------------
jit/startup time      : 75.0074ms
moved types parse time: 72ms
candidates parse time : 1ms
C# parse time         : 293ms
candidates check time : 98ms
console write time    : 1ms

[api-updater (non-obsolete-error-filter)] 2/28/2023 1:56:44 PM : Starting E:/Work/Unity/editors/2020.3.41f1/Editor/Data/Tools/ScriptUpdater/APIUpdater.NonObsoleteApiUpdaterDetector.exe
[api-updater (non-obsolete-error-filter)] 
----------------------------------
jit/startup time      : 73.9997ms
moved types parse time: 76ms
candidates parse time : 1ms
C# parse time         : 288ms
candidates check time : 82ms
console write time    : 0ms

[api-updater (non-obsolete-error-filter)] 2/28/2023 1:57:12 PM : Starting E:/Work/Unity/editors/2020.3.41f1/Editor/Data/Tools/ScriptUpdater/APIUpdater.NonObsoleteApiUpdaterDetector.exe
[api-updater (non-obsolete-error-filter)] 
----------------------------------
jit/startup time      : 67.0039ms
moved types parse time: 72ms
candidates parse time : 1ms
C# parse time         : 301ms
candidates check time : 119ms
console write time    : 1ms

[api-updater (non-obsolete-error-filter)] 2/28/2023 1:57:15 PM : Starting E:/Work/Unity/editors/2020.3.41f1/Editor/Data/Tools/ScriptUpdater/APIUpdater.NonObsoleteApiUpdaterDetector.exe
[api-updater (non-obsolete-error-filter)] 
----------------------------------
jit/startup time      : 75.0058ms
moved types parse time: 94ms
candidates parse time : 2ms
C# parse time         : 302ms
candidates check time : 89ms
console write time    : 0ms

[api-updater (non-obsolete-error-filter)] 3/6/2023 11:09:56 AM : Starting E:/Work/Unity/editors/2020.3.41f1/Editor/Data/Tools/ScriptUpdater/APIUpdater.NonObsoleteApiUpdaterDetector.exe
[api-updater (non-obsolete-error-filter)] 
----------------------------------
jit/startup time      : 242.0194ms
moved types parse time: 99ms
candidates parse time : 1ms
C# parse time         : 416ms
candidates check time : 107ms
console write time    : 1ms

[api-updater (non-obsolete-error-filter)] 3/6/2023 11:10:00 AM : Starting E:/Work/Unity/editors/2020.3.41f1/Editor/Data/Tools/ScriptUpdater/APIUpdater.NonObsoleteApiUpdaterDetector.exe
[api-updater (non-obsolete-error-filter)] 
----------------------------------
jit/startup time      : 77.0063ms
moved types parse time: 111ms
candidates parse time : 2ms
C# parse time         : 389ms
candidates check time : 101ms
console write time    : 0ms

[api-updater (non-obsolete-error-filter)] 3/6/2023 3:07:29 PM : Starting E:/Work/Unity/editors/2020.3.41f1/Editor/Data/Tools/ScriptUpdater/APIUpdater.NonObsoleteApiUpdaterDetector.exe
[api-updater (non-obsolete-error-filter)] 
----------------------------------
jit/startup time      : 73.0052ms
moved types parse time: 69ms
candidates parse time : 1ms
C# parse time         : 234ms
candidates check time : 36ms
console write time    : 0ms

[api-updater (non-obsolete-error-filter)] 3/6/2023 3:08:04 PM : Starting E:/Work/Unity/editors/2020.3.41f1/Editor/Data/Tools/ScriptUpdater/APIUpdater.NonObsoleteApiUpdaterDetector.exe
[api-updater (non-obsolete-error-filter)] 
----------------------------------
jit/startup time      : 73.0046ms
moved types parse time: 70ms
candidates parse time : 1ms
C# parse time         : 267ms
candidates check time : 38ms
console write time    : 0ms

[api-updater (non-obsolete-error-filter)] 3/7/2023 11:07:21 AM : Starting E:/Work/Unity/editors/2020.3.41f1/Editor/Data/Tools/ScriptUpdater/APIUpdater.NonObsoleteApiUpdaterDetector.exe
[api-updater (non-obsolete-error-filter)] 
----------------------------------
jit/startup time      : 226.2826ms
moved types parse time: 89ms
candidates parse time : 1ms
C# parse time         : 364ms
candidates check time : 72ms
console write time    : 1ms

[api-updater (non-obsolete-error-filter)] 3/9/2023 3:53:18 PM : Starting E:/Work/Unity/editors/2020.3.41f1/Editor/Data/Tools/ScriptUpdater/APIUpdater.NonObsoleteApiUpdaterDetector.exe
[api-updater (non-obsolete-error-filter)] 
----------------------------------
jit/startup time      : 215.0133ms
moved types parse time: 88ms
candidates parse time : 1ms
C# parse time         : 315ms
candidates check time : 82ms
console write time    : 1ms

[api-updater (non-obsolete-error-filter)] 3/9/2023 4:37:21 PM : Starting E:/Work/Unity/editors/2020.3.41f1/Editor/Data/Tools/ScriptUpdater/APIUpdater.NonObsoleteApiUpdaterDetector.exe
[api-updater (non-obsolete-error-filter)] 
----------------------------------
jit/startup time      : 96.0151ms
moved types parse time: 93ms
candidates parse time : 2ms
C# parse time         : 387ms
candidates check time : 111ms
console write time    : 0ms

[api-updater (non-obsolete-error-filter)] 3/9/2023 4:43:30 PM : Starting E:/Work/Unity/editors/2020.3.41f1/Editor/Data/Tools/ScriptUpdater/APIUpdater.NonObsoleteApiUpdaterDetector.exe
[api-updater (non-obsolete-error-filter)] 
----------------------------------
jit/startup time      : 80.1107ms
moved types parse time: 91ms
candidates parse time : 2ms
C# parse time         : 340ms
candidates check time : 120ms
console write time    : 1ms

[api-updater (non-obsolete-error-filter)] 3/9/2023 4:43:43 PM : Starting E:/Work/Unity/editors/2020.3.41f1/Editor/Data/Tools/ScriptUpdater/APIUpdater.NonObsoleteApiUpdaterDetector.exe
[api-updater (non-obsolete-error-filter)] 
----------------------------------
jit/startup time      : 69.787ms
moved types parse time: 71ms
candidates parse time : 1ms
C# parse time         : 283ms
candidates check time : 110ms
console write time    : 0ms

[api-updater (non-obsolete-error-filter)] 3/9/2023 4:43:46 PM : Starting E:/Work/Unity/editors/2020.3.41f1/Editor/Data/Tools/ScriptUpdater/APIUpdater.NonObsoleteApiUpdaterDetector.exe
[api-updater (non-obsolete-error-filter)] 
----------------------------------
jit/startup time      : 72.0958ms
moved types parse time: 90ms
candidates parse time : 2ms
C# parse time         : 322ms
candidates check time : 83ms
console write time    : 0ms

[api-updater (non-obsolete-error-filter)] 3/11/2023 5:56:22 PM : Starting E:/Work/Unity/editors/2020.3.41f1/Editor/Data/Tools/ScriptUpdater/APIUpdater.NonObsoleteApiUpdaterDetector.exe
[api-updater (non-obsolete-error-filter)] 
----------------------------------
jit/startup time      : 215.0565ms
moved types parse time: 97ms
candidates parse time : 1ms
C# parse time         : 398ms
candidates check time : 82ms
console write time    : 1ms

[api-updater (non-obsolete-error-filter)] 3/13/2023 5:23:17 PM : Starting E:/Work/Unity/editors/2020.3.41f1/Editor/Data/Tools/ScriptUpdater/APIUpdater.NonObsoleteApiUpdaterDetector.exe
[api-updater (non-obsolete-error-filter)] 
----------------------------------
jit/startup time      : 273.0198ms
moved types parse time: 120ms
candidates parse time : 1ms
C# parse time         : 570ms
candidates check time : 79ms
console write time    : 1ms

[api-updater (non-obsolete-error-filter)] 3/13/2023 5:23:36 PM : Starting E:/Work/Unity/editors/2020.3.41f1/Editor/Data/Tools/ScriptUpdater/APIUpdater.NonObsoleteApiUpdaterDetector.exe
[api-updater (non-obsolete-error-filter)] 
----------------------------------
jit/startup time      : 71.439ms
moved types parse time: 81ms
candidates parse time : 2ms
C# parse time         : 338ms
candidates check time : 74ms
console write time    : 0ms

[api-updater (non-obsolete-error-filter)] 3/14/2023 8:53:32 AM : Starting E:/Work/Unity/editors/2020.3.41f1/Editor/Data/Tools/ScriptUpdater/APIUpdater.NonObsoleteApiUpdaterDetector.exe
[api-updater (non-obsolete-error-filter)] 
----------------------------------
jit/startup time      : 138.0093ms
moved types parse time: 86ms
candidates parse time : 2ms
C# parse time         : 445ms
candidates check time : 139ms
console write time    : 1ms

[api-updater (non-obsolete-error-filter)] 3/14/2023 8:59:32 AM : Starting E:/Work/Unity/editors/2020.3.41f1/Editor/Data/Tools/ScriptUpdater/APIUpdater.NonObsoleteApiUpdaterDetector.exe
[api-updater (non-obsolete-error-filter)] 
----------------------------------
jit/startup time      : 75.0059ms
moved types parse time: 153ms
candidates parse time : 1ms
C# parse time         : 388ms
candidates check time : 125ms
console write time    : 1ms

[api-updater (non-obsolete-error-filter)] 3/14/2023 9:01:41 AM : Starting E:/Work/Unity/editors/2020.3.41f1/Editor/Data/Tools/ScriptUpdater/APIUpdater.NonObsoleteApiUpdaterDetector.exe
[api-updater (non-obsolete-error-filter)] 
----------------------------------
jit/startup time      : 79.5202ms
moved types parse time: 95ms
candidates parse time : 1ms
C# parse time         : 402ms
candidates check time : 127ms
console write time    : 0ms

[api-updater (non-obsolete-error-filter)] 3/14/2023 9:04:08 AM : Starting E:/Work/Unity/editors/2020.3.41f1/Editor/Data/Tools/ScriptUpdater/APIUpdater.NonObsoleteApiUpdaterDetector.exe
[api-updater (non-obsolete-error-filter)] 
----------------------------------
jit/startup time      : 80.5374ms
moved types parse time: 86ms
candidates parse time : 2ms
C# parse time         : 282ms
candidates check time : 86ms
console write time    : 0ms

[api-updater (non-obsolete-error-filter)] 3/14/2023 9:05:03 AM : Starting E:/Work/Unity/editors/2020.3.41f1/Editor/Data/Tools/ScriptUpdater/APIUpdater.NonObsoleteApiUpdaterDetector.exe
[api-updater (non-obsolete-error-filter)] 
----------------------------------
jit/startup time      : 71.6605ms
moved types parse time: 81ms
candidates parse time : 1ms
C# parse time         : 296ms
candidates check time : 61ms
console write time    : 1ms

[api-updater (non-obsolete-error-filter)] 3/14/2023 9:05:20 AM : Starting E:/Work/Unity/editors/2020.3.41f1/Editor/Data/Tools/ScriptUpdater/APIUpdater.NonObsoleteApiUpdaterDetector.exe
[api-updater (non-obsolete-error-filter)] 
----------------------------------
jit/startup time      : 81.2384ms
moved types parse time: 97ms
candidates parse time : 2ms
C# parse time         : 306ms
candidates check time : 66ms
console write time    : 0ms

[api-updater (non-obsolete-error-filter)] 3/14/2023 9:05:30 AM : Starting E:/Work/Unity/editors/2020.3.41f1/Editor/Data/Tools/ScriptUpdater/APIUpdater.NonObsoleteApiUpdaterDetector.exe
[api-updater (non-obsolete-error-filter)] 
----------------------------------
jit/startup time      : 93.5266ms
moved types parse time: 84ms
candidates parse time : 3ms
C# parse time         : 303ms
candidates check time : 92ms
console write time    : 0ms

[api-updater (non-obsolete-error-filter)] 3/14/2023 9:05:36 AM : Starting E:/Work/Unity/editors/2020.3.41f1/Editor/Data/Tools/ScriptUpdater/APIUpdater.NonObsoleteApiUpdaterDetector.exe
[api-updater (non-obsolete-error-filter)] 
----------------------------------
jit/startup time      : 91.0379ms
moved types parse time: 143ms
candidates parse time : 2ms
C# parse time         : 465ms
candidates check time : 122ms
console write time    : 1ms

[api-updater (non-obsolete-error-filter)] 3/14/2023 9:06:17 AM : Starting E:/Work/Unity/editors/2020.3.41f1/Editor/Data/Tools/ScriptUpdater/APIUpdater.NonObsoleteApiUpdaterDetector.exe
[api-updater (non-obsolete-error-filter)] 
----------------------------------
jit/startup time      : 94.8383ms
moved types parse time: 100ms
candidates parse time : 1ms
C# parse time         : 361ms
candidates check time : 165ms
console write time    : 1ms

[api-updater (non-obsolete-error-filter)] 3/14/2023 9:06:49 AM : Starting E:/Work/Unity/editors/2020.3.41f1/Editor/Data/Tools/ScriptUpdater/APIUpdater.NonObsoleteApiUpdaterDetector.exe
[api-updater (non-obsolete-error-filter)] 
----------------------------------
jit/startup time      : 75.8635ms
moved types parse time: 80ms
candidates parse time : 1ms
C# parse time         : 339ms
candidates check time : 85ms
console write time    : 1ms

[api-updater (non-obsolete-error-filter)] 3/14/2023 9:33:09 AM : Starting E:/Work/Unity/editors/2020.3.41f1/Editor/Data/Tools/ScriptUpdater/APIUpdater.NonObsoleteApiUpdaterDetector.exe
[api-updater (non-obsolete-error-filter)] 
----------------------------------
jit/startup time      : 82.5907ms
moved types parse time: 77ms
candidates parse time : 1ms
C# parse time         : 329ms
candidates check time : 95ms
console write time    : 1ms

[api-updater (non-obsolete-error-filter)] 3/14/2023 9:41:15 AM : Starting E:/Work/Unity/editors/2020.3.41f1/Editor/Data/Tools/ScriptUpdater/APIUpdater.NonObsoleteApiUpdaterDetector.exe
[api-updater (non-obsolete-error-filter)] 
----------------------------------
jit/startup time      : 71.0063ms
moved types parse time: 68ms
candidates parse time : 1ms
C# parse time         : 278ms
candidates check time : 75ms
console write time    : 0ms

[api-updater (non-obsolete-error-filter)] 3/14/2023 11:14:58 AM : Starting E:/Work/Unity/editors/2020.3.41f1/Editor/Data/Tools/ScriptUpdater/APIUpdater.NonObsoleteApiUpdaterDetector.exe
[api-updater (non-obsolete-error-filter)] 
----------------------------------
jit/startup time      : 69.0033ms
moved types parse time: 65ms
candidates parse time : 1ms
C# parse time         : 252ms
candidates check time : 61ms
console write time    : 0ms

[api-updater (non-obsolete-error-filter)] 3/16/2023 9:15:49 AM : Starting E:/Work/Unity/editors/2020.3.41f1/Editor/Data/Tools/ScriptUpdater/APIUpdater.NonObsoleteApiUpdaterDetector.exe
[api-updater (non-obsolete-error-filter)] 
----------------------------------
jit/startup time      : 206.8456ms
moved types parse time: 75ms
candidates parse time : 1ms
C# parse time         : 380ms
candidates check time : 69ms
console write time    : 1ms

[api-updater (non-obsolete-error-filter)] 3/16/2023 9:16:16 AM : Starting E:/Work/Unity/editors/2020.3.41f1/Editor/Data/Tools/ScriptUpdater/APIUpdater.NonObsoleteApiUpdaterDetector.exe
[api-updater (non-obsolete-error-filter)] 
----------------------------------
jit/startup time      : 70.8485ms
moved types parse time: 74ms
candidates parse time : 1ms
C# parse time         : 317ms
candidates check time : 55ms
console write time    : 1ms

[api-updater (non-obsolete-error-filter)] 3/16/2023 9:16:22 AM : Starting E:/Work/Unity/editors/2020.3.41f1/Editor/Data/Tools/ScriptUpdater/APIUpdater.NonObsoleteApiUpdaterDetector.exe
[api-updater (non-obsolete-error-filter)] 
----------------------------------
jit/startup time      : 81.0062ms
moved types parse time: 92ms
candidates parse time : 1ms
C# parse time         : 372ms
candidates check time : 83ms
console write time    : 1ms

[api-updater (non-obsolete-error-filter)] 3/21/2023 2:57:04 PM : Starting E:/Work/Unity/editors/2020.3.41f1/Editor/Data/Tools/ScriptUpdater/APIUpdater.NonObsoleteApiUpdaterDetector.exe
[api-updater (non-obsolete-error-filter)] 
----------------------------------
jit/startup time      : 200.0167ms
moved types parse time: 151ms
candidates parse time : 2ms
C# parse time         : 417ms
candidates check time : 88ms
console write time    : 1ms

[api-updater (non-obsolete-error-filter)] 3/21/2023 3:03:40 PM : Starting E:/Work/Unity/editors/2020.3.41f1/Editor/Data/Tools/ScriptUpdater/APIUpdater.NonObsoleteApiUpdaterDetector.exe
[api-updater (non-obsolete-error-filter)] 
----------------------------------
jit/startup time      : 97.0055ms
moved types parse time: 93ms
candidates parse time : 2ms
C# parse time         : 392ms
candidates check time : 96ms
console write time    : 0ms

[api-updater (non-obsolete-error-filter)] 3/21/2023 3:52:44 PM : Starting E:/Work/Unity/editors/2020.3.41f1/Editor/Data/Tools/ScriptUpdater/APIUpdater.NonObsoleteApiUpdaterDetector.exe
[api-updater (non-obsolete-error-filter)] 
----------------------------------
jit/startup time      : 73.0048ms
moved types parse time: 81ms
candidates parse time : 1ms
C# parse time         : 317ms
candidates check time : 90ms
console write time    : 0ms

[api-updater (non-obsolete-error-filter)] 3/22/2023 11:55:56 AM : Starting E:/Work/Unity/editors/2020.3.41f1/Editor/Data/Tools/ScriptUpdater/APIUpdater.NonObsoleteApiUpdaterDetector.exe
[api-updater (non-obsolete-error-filter)] 
----------------------------------
jit/startup time      : 176.1136ms
moved types parse time: 70ms
candidates parse time : 1ms
C# parse time         : 303ms
candidates check time : 71ms
console write time    : 1ms

[api-updater (non-obsolete-error-filter)] 4/27/2023 10:48:15 AM : Starting E:/Work/Unity/editors/2020.3.41f1/Editor/Data/Tools/ScriptUpdater/APIUpdater.NonObsoleteApiUpdaterDetector.exe
[api-updater (non-obsolete-error-filter)] 
----------------------------------
jit/startup time      : 207.0167ms
moved types parse time: 80ms
candidates parse time : 1ms
C# parse time         : 330ms
candidates check time : 49ms
console write time    : 1ms

[api-updater (non-obsolete-error-filter)] 4/27/2023 1:49:51 PM : Starting E:/Work/Unity/editors/2020.3.41f1/Editor/Data/Tools/ScriptUpdater/APIUpdater.NonObsoleteApiUpdaterDetector.exe
[api-updater (non-obsolete-error-filter)] 
----------------------------------
jit/startup time      : 200.9874ms
moved types parse time: 76ms
candidates parse time : 3ms
C# parse time         : 370ms
candidates check time : 70ms
console write time    : 0ms

[api-updater (non-obsolete-error-filter)] 4/27/2023 1:49:55 PM : Starting E:/Work/Unity/editors/2020.3.41f1/Editor/Data/Tools/ScriptUpdater/APIUpdater.NonObsoleteApiUpdaterDetector.exe
[api-updater (non-obsolete-error-filter)] 
----------------------------------
jit/startup time      : 72.0181ms
moved types parse time: 99ms
candidates parse time : 3ms
C# parse time         : 341ms
candidates check time : 76ms
console write time    : 1ms

[api-updater (non-obsolete-error-filter)] 4/27/2023 4:01:56 PM : Starting E:/Work/Unity/editors/2020.3.41f1/Editor/Data/Tools/ScriptUpdater/APIUpdater.NonObsoleteApiUpdaterDetector.exe
[api-updater (non-obsolete-error-filter)] 
----------------------------------
jit/startup time      : 137.0611ms
moved types parse time: 64ms
candidates parse time : 1ms
C# parse time         : 300ms
candidates check time : 80ms
console write time    : 0ms

