Library\Bee\artifacts\mvdfrm\UnityEngine.UI.ref.dll_AFC2E85BC2EDBC0B.mvfrm
Library\Bee\artifacts\mvdfrm\UnityEngine.AccessibilityModule.dll_4A0985560A6A855B.mvfrm
Library\Bee\artifacts\mvdfrm\UnityEngine.AIModule.dll_FEEB98DD1ADE2C2F.mvfrm
Library\Bee\artifacts\mvdfrm\UnityEngine.AndroidJNIModule.dll_F524891CB93C096D.mvfrm
Library\Bee\artifacts\mvdfrm\UnityEngine.AnimationModule.dll_52FCB528EA121541.mvfrm
Library\Bee\artifacts\mvdfrm\UnityEngine.ARModule.dll_B85E5DE077FB8AF8.mvfrm
Library\Bee\artifacts\mvdfrm\UnityEngine.AssetBundleModule.dll_1872071C69FCCE8F.mvfrm
Library\Bee\artifacts\mvdfrm\UnityEngine.AudioModule.dll_77F03A0885A6BDF3.mvfrm
Library\Bee\artifacts\mvdfrm\UnityEngine.ClothModule.dll_DED897035FC39CD7.mvfrm
Library\Bee\artifacts\mvdfrm\UnityEngine.CoreModule.dll_087CCF05DC1AE266.mvfrm
Library\Bee\artifacts\mvdfrm\UnityEngine.CrashReportingModule.dll_7BC34C715A3BF1BE.mvfrm
Library\Bee\artifacts\mvdfrm\UnityEngine.DirectorModule.dll_87FE1944AA039A03.mvfrm
Library\Bee\artifacts\mvdfrm\UnityEngine.dll_0679BC064BF7FA4F.mvfrm
Library\Bee\artifacts\mvdfrm\UnityEngine.DSPGraphModule.dll_8D4F7AAE1C646B24.mvfrm
Library\Bee\artifacts\mvdfrm\UnityEngine.GameCenterModule.dll_1F71D3377F7CFA5E.mvfrm
Library\Bee\artifacts\mvdfrm\UnityEngine.GIModule.dll_9727E1EAB68D1449.mvfrm
Library\Bee\artifacts\mvdfrm\UnityEngine.GridModule.dll_E5EDEAF3F46F785D.mvfrm
Library\Bee\artifacts\mvdfrm\UnityEngine.HotReloadModule.dll_D445732EC54530C3.mvfrm
Library\Bee\artifacts\mvdfrm\UnityEngine.ImageConversionModule.dll_35118F20677ABDEE.mvfrm
Library\Bee\artifacts\mvdfrm\UnityEngine.IMGUIModule.dll_B04FD96F4BD851D4.mvfrm
Library\Bee\artifacts\mvdfrm\UnityEngine.InputLegacyModule.dll_A9B7223B01EE8480.mvfrm
Library\Bee\artifacts\mvdfrm\UnityEngine.InputModule.dll_DE6601B8FBDEE297.mvfrm
Library\Bee\artifacts\mvdfrm\UnityEngine.JSONSerializeModule.dll_AA210E9209A5E5E5.mvfrm
Library\Bee\artifacts\mvdfrm\UnityEngine.LocalizationModule.dll_AA220D06A3568930.mvfrm
Library\Bee\artifacts\mvdfrm\UnityEngine.ParticleSystemModule.dll_CED595BDC84D7D4C.mvfrm
Library\Bee\artifacts\mvdfrm\UnityEngine.PerformanceReportingModule.dll_4973F27CC7825D25.mvfrm
Library\Bee\artifacts\mvdfrm\UnityEngine.Physics2DModule.dll_9FA2A5198B0F0CD6.mvfrm
Library\Bee\artifacts\mvdfrm\UnityEngine.PhysicsModule.dll_58FFBF5691A6F524.mvfrm
Library\Bee\artifacts\mvdfrm\UnityEngine.ProfilerModule.dll_BA44527B435D2110.mvfrm
Library\Bee\artifacts\mvdfrm\UnityEngine.RuntimeInitializeOnLoadManagerInitializerModule.dll_B744276F2F27299F.mvfrm
Library\Bee\artifacts\mvdfrm\UnityEngine.ScreenCaptureModule.dll_C408BC171E121247.mvfrm
Library\Bee\artifacts\mvdfrm\UnityEngine.SharedInternalsModule.dll_B922CDF5DEA8B93E.mvfrm
Library\Bee\artifacts\mvdfrm\UnityEngine.SpriteMaskModule.dll_089E45C7A0EC8FD8.mvfrm
Library\Bee\artifacts\mvdfrm\UnityEngine.SpriteShapeModule.dll_31D334771F9F0699.mvfrm
Library\Bee\artifacts\mvdfrm\UnityEngine.StreamingModule.dll_0791A2793999CC7F.mvfrm
Library\Bee\artifacts\mvdfrm\UnityEngine.SubstanceModule.dll_E43CB6C284ECCA8D.mvfrm
Library\Bee\artifacts\mvdfrm\UnityEngine.SubsystemsModule.dll_734BAC296F3477EB.mvfrm
Library\Bee\artifacts\mvdfrm\UnityEngine.TerrainModule.dll_73463AC567653E12.mvfrm
Library\Bee\artifacts\mvdfrm\UnityEngine.TerrainPhysicsModule.dll_CF503E90E19077D9.mvfrm
Library\Bee\artifacts\mvdfrm\UnityEngine.TextCoreFontEngineModule.dll_A0340BA004EB0924.mvfrm
Library\Bee\artifacts\mvdfrm\UnityEngine.TextCoreTextEngineModule.dll_E81C4211946EC242.mvfrm
Library\Bee\artifacts\mvdfrm\UnityEngine.TextRenderingModule.dll_ED482E21D549923C.mvfrm
Library\Bee\artifacts\mvdfrm\UnityEngine.TilemapModule.dll_1242A2467F221F1B.mvfrm
Library\Bee\artifacts\mvdfrm\UnityEngine.TLSModule.dll_0DBA9A3B62B95CF8.mvfrm
Library\Bee\artifacts\mvdfrm\UnityEngine.UIElementsModule.dll_778A0D917260B3E2.mvfrm
Library\Bee\artifacts\mvdfrm\UnityEngine.UIElementsNativeModule.dll_34AE2D31BD1F88F9.mvfrm
Library\Bee\artifacts\mvdfrm\UnityEngine.UIModule.dll_FA5F370A772531DB.mvfrm
Library\Bee\artifacts\mvdfrm\UnityEngine.UmbraModule.dll_F2C4E62112CD6966.mvfrm
Library\Bee\artifacts\mvdfrm\UnityEngine.UNETModule.dll_9B2316EF2929D7DF.mvfrm
Library\Bee\artifacts\mvdfrm\UnityEngine.UnityAnalyticsCommonModule.dll_E4B2AFC0E16AFB83.mvfrm
Library\Bee\artifacts\mvdfrm\UnityEngine.UnityAnalyticsModule.dll_EE7506877474CF48.mvfrm
Library\Bee\artifacts\mvdfrm\UnityEngine.UnityConnectModule.dll_D99851AD54DAC41C.mvfrm
Library\Bee\artifacts\mvdfrm\UnityEngine.UnityCurlModule.dll_8619565A5A26072E.mvfrm
Library\Bee\artifacts\mvdfrm\UnityEngine.UnityTestProtocolModule.dll_DAD0DF7713CFB29C.mvfrm
Library\Bee\artifacts\mvdfrm\UnityEngine.UnityWebRequestAssetBundleModule.dll_7C1DA5D0424D2819.mvfrm
Library\Bee\artifacts\mvdfrm\UnityEngine.UnityWebRequestAudioModule.dll_C170465B4DED27BD.mvfrm
Library\Bee\artifacts\mvdfrm\UnityEngine.UnityWebRequestModule.dll_46B096CA726F586D.mvfrm
Library\Bee\artifacts\mvdfrm\UnityEngine.UnityWebRequestTextureModule.dll_E27970FE1939C732.mvfrm
Library\Bee\artifacts\mvdfrm\UnityEngine.UnityWebRequestWWWModule.dll_B2DE876D842E7EAE.mvfrm
Library\Bee\artifacts\mvdfrm\UnityEngine.VehiclesModule.dll_FFC112C4242D699E.mvfrm
Library\Bee\artifacts\mvdfrm\UnityEngine.VFXModule.dll_8E9932AA3926C665.mvfrm
Library\Bee\artifacts\mvdfrm\UnityEngine.VideoModule.dll_9CF9BE734838D998.mvfrm
Library\Bee\artifacts\mvdfrm\UnityEngine.VRModule.dll_4D315D9018DFB753.mvfrm
Library\Bee\artifacts\mvdfrm\UnityEngine.WindModule.dll_7ECBAA2E6D5160CF.mvfrm
Library\Bee\artifacts\mvdfrm\UnityEngine.XRModule.dll_7FF02094A21A04B1.mvfrm
Library\Bee\artifacts\mvdfrm\Unity.Burst.Cecil.dll_E7EEBE3D3B460B41.mvfrm
Library\Bee\artifacts\mvdfrm\Unity.Burst.Cecil.Mdb.dll_D892D800321396BE.mvfrm
Library\Bee\artifacts\mvdfrm\Unity.Burst.Cecil.Pdb.dll_EFE5506FB0C89841.mvfrm
Library\Bee\artifacts\mvdfrm\Unity.Burst.Cecil.Rocks.dll_F01D5FCB054A1A81.mvfrm
Library\Bee\artifacts\mvdfrm\Unity.Burst.Unsafe.dll_E507C44EF6C67C02.mvfrm